  0
SECTION
  2
HEADER
  9
$ACADVER
  1
AC1009
  9
$INSBASE
 10
0.0
 20
0.0
 30
0.0
  9
$EXTMIN
 10
0.0
 20
0.0
 30
0.0
  9
$EXTMAX
 10
0.0
 20
0.0
 30
0.0
  0
ENDSEC
  0
SECTION
  2
TABLES
  0
TABLE
  2
VPORT
 70
0
  0
ENDTAB
  0
TABLE
  2
LTYPE
 70
1
  0
LTYPE
  2
CONTINUOUS
 70
0
  3
Solid line
 72
65
 73
0
 40
0.0
  0
ENDTAB
  0
TABLE
  2
LAYER
 70
1
  0
LAYER
  2
0
 70
64
 62
7
  6
continuous
  0
ENDTAB
  0
TABLE
  2
STYLE
 70
1
  0
STYLE
  2
STANDARD
 70
0
 40
0
 41
1.0
 50
0.0
 71
0
 42
1
 3
ARIAL.TTF
 4

  0
ENDTAB
  0
TABLE
  2
VIEW
 70
0
  0
ENDTAB
  0
ENDSEC
  0
SECTION
  2
BLOCKS
  0
BLOCK
  8
0
  2
SHAPE2DVIEW001
 70
0
 10
0.0
 20
0.0
 30
0.0
  3
SHAPE2DVIEW001
  0
ARC
  8
0
 62
0
 10
-140.0
 20
50.0
 30
0.0
 40
8.0
 50
70.3461759419
 51
-109.653824058
  0
LINE
  8
0
 62
0
 10
-137.309308824
 20
57.5339352928
 30
0.0
 11
-35.0
 21
25.0
 31
0.0
  0
LINE
  8
0
 62
0
 10
-35.0
 20
25.0
 30
0.0
 11
35.0
 21
25.0
 31
0.0
  0
LINE
  8
0
 62
0
 10
35.0
 20
25.0
 30
0.0
 11
137.309308824
 21
57.5339352928
 31
0.0
  0
ARC
  8
0
 62
0
 10
140.0
 20
50.0
 30
0.0
 40
8.0
 50
-70.3461759419
 51
109.653824058
  0
LINE
  8
0
 62
0
 10
142.690691176
 20
42.4660647072
 30
0.0
 11
43.0
 21
9.0
 31
0.0
  0
LINE
  8
0
 62
0
 10
43.0
 20
9.0
 30
0.0
 11
41.0
 21
9.0
 31
0.0
  0
LINE
  8
0
 62
0
 10
41.0
 20
9.0
 30
0.0
 11
41.0
 21
8.0
 31
0.0
  0
LINE
  8
0
 62
0
 10
41.0
 20
8.0
 30
0.0
 11
43.0
 21
8.0
 31
0.0
  0
LINE
  8
0
 62
0
 10
43.0
 20
8.0
 30
0.0
 11
43.0
 21
-8.0
 31
0.0
  0
LINE
  8
0
 62
0
 10
43.0
 20
-8.0
 30
0.0
 11
41.0
 21
-8.0
 31
0.0
  0
LINE
  8
0
 62
0
 10
41.0
 20
-8.0
 30
0.0
 11
41.0
 21
-9.0
 31
0.0
  0
LINE
  8
0
 62
0
 10
41.0
 20
-9.0
 30
0.0
 11
43.0
 21
-9.0
 31
0.0
  0
LINE
  8
0
 62
0
 10
43.0
 20
-9.0
 30
0.0
 11
142.690691176
 21
-42.4660647072
 31
0.0
  0
ARC
  8
0
 62
0
 10
140.0
 20
-50.0
 30
0.0
 40
8.0
 50
-109.653824058
 51
70.3461759419
  0
LINE
  8
0
 62
0
 10
35.0
 20
-25.0
 30
0.0
 11
137.309308824
 21
-57.5339352928
 31
0.0
  0
LINE
  8
0
 62
0
 10
-35.0
 20
-25.0
 30
0.0
 11
35.0
 21
-25.0
 31
0.0
  0
LINE
  8
0
 62
0
 10
-137.309308824
 20
-57.5339352928
 30
0.0
 11
-35.0
 21
-25.0
 31
0.0
  0
ARC
  8
0
 62
0
 10
-140.0
 20
-50.0
 30
0.0
 40
8.0
 50
109.653824058
 51
-70.3461759419
  0
LINE
  8
0
 62
0
 10
-43.0
 20
-9.0
 30
0.0
 11
-142.690691176
 21
-42.4660647072
 31
0.0
  0
LINE
  8
0
 62
0
 10
-43.0
 20
-9.0
 30
0.0
 11
-41.0
 21
-9.0
 31
0.0
  0
LINE
  8
0
 62
0
 10
-41.0
 20
-9.0
 30
0.0
 11
-41.0
 21
-8.0
 31
0.0
  0
LINE
  8
0
 62
0
 10
-41.0
 20
-8.0
 30
0.0
 11
-43.0
 21
-8.0
 31
0.0
  0
LINE
  8
0
 62
0
 10
-43.0
 20
8.0
 30
0.0
 11
-43.0
 21
-8.0
 31
0.0
  0
LINE
  8
0
 62
0
 10
-41.0
 20
8.0
 30
0.0
 11
-43.0
 21
8.0
 31
0.0
  0
LINE
  8
0
 62
0
 10
-41.0
 20
9.0
 30
0.0
 11
-41.0
 21
8.0
 31
0.0
  0
LINE
  8
0
 62
0
 10
-43.0
 20
9.0
 30
0.0
 11
-41.0
 21
9.0
 31
0.0
  0
LINE
  8
0
 62
0
 10
-142.690691176
 20
42.4660647072
 30
0.0
 11
-43.0
 21
9.0
 31
0.0
  0
CIRCLE
  8
0
 62
0
 10
140.0
 20
-50.0
 30
0.0
 40
2.6
  0
CIRCLE
  8
0
 62
0
 10
140.0
 20
50.0
 30
0.0
 40
2.6
  0
CIRCLE
  8
0
 62
0
 10
-140.0
 20
-50.0
 30
0.0
 40
2.6
  0
CIRCLE
  8
0
 62
0
 10
-140.0
 20
50.0
 30
0.0
 40
2.6
  0
CIRCLE
  8
0
 62
0
 10
-25.0
 20
-15.0
 30
0.0
 40
2.6
  0
CIRCLE
  8
0
 62
0
 10
25.0
 20
-15.0
 30
0.0
 40
2.6
  0
CIRCLE
  8
0
 62
0
 10
25.0
 20
15.0
 30
0.0
 40
2.6
  0
CIRCLE
  8
0
 62
0
 10
-25.0
 20
15.0
 30
0.0
 40
2.6
  0
LINE
  8
0
 62
0
 10
-1.6
 20
-16.0928549979
 30
0.0
 11
-1.6
 21
-11.8928549979
 31
0.0
  0
LINE
  8
0
 62
0
 10
1.6
 20
-16.0928549979
 30
0.0
 11
-1.6
 21
-16.0928549979
 31
0.0
  0
LINE
  8
0
 62
0
 10
1.6
 20
-11.8928549979
 30
0.0
 11
1.6
 21
-16.0928549979
 31
0.0
  0
LINE
  8
0
 62
0
 10
-1.6
 20
-11.8928549979
 30
0.0
 11
1.6
 21
-11.8928549979
 31
0.0
  0
LINE
  8
0
 62
0
 10
11.8928549979
 20
-1.6
 30
0.0
 11
11.8928549979
 21
1.6
 31
0.0
  0
LINE
  8
0
 62
0
 10
16.0928549979
 20
-1.6
 30
0.0
 11
11.8928549979
 21
-1.6
 31
0.0
  0
LINE
  8
0
 62
0
 10
16.0928549979
 20
1.6
 30
0.0
 11
16.0928549979
 21
-1.6
 31
0.0
  0
LINE
  8
0
 62
0
 10
11.8928549979
 20
1.6
 30
0.0
 11
16.0928549979
 21
1.6
 31
0.0
  0
LINE
  8
0
 62
0
 10
-16.0928549979
 20
-1.6
 30
0.0
 11
-16.0928549979
 21
1.6
 31
0.0
  0
LINE
  8
0
 62
0
 10
-11.8928549979
 20
-1.6
 30
0.0
 11
-16.0928549979
 21
-1.6
 31
0.0
  0
LINE
  8
0
 62
0
 10
-11.8928549979
 20
1.6
 30
0.0
 11
-11.8928549979
 21
-1.6
 31
0.0
  0
LINE
  8
0
 62
0
 10
-16.0928549979
 20
1.6
 30
0.0
 11
-11.8928549979
 21
1.6
 31
0.0
  0
LINE
  8
0
 62
0
 10
-1.6
 20
11.8928549979
 30
0.0
 11
-1.6
 21
16.0928549979
 31
0.0
  0
LINE
  8
0
 62
0
 10
1.6
 20
11.8928549979
 30
0.0
 11
-1.6
 21
11.8928549979
 31
0.0
  0
LINE
  8
0
 62
0
 10
1.6
 20
16.0928549979
 30
0.0
 11
1.6
 21
11.8928549979
 31
0.0
  0
LINE
  8
0
 62
0
 10
-1.6
 20
16.0928549979
 30
0.0
 11
1.6
 21
16.0928549979
 31
0.0
  0
ENDBLK
  0
ENDSEC
  0
SECTION
  2
ENTITIES
  0
INSERT
  2
SHAPE2DVIEW001
  8
0
 62
0
 10
0.0
 20
0.0
 30
0.0
  0
ENDSEC
  0
EOF
