ISO-10303-21;
HEADER;
FILE_DESCRIPTION (( 'STEP AP203' ),
    '1' );
FILE_NAME ('REV-49-1559.STEP',
    '2017-12-14T17:42:09',
    ( '' ),
    ( '' ),
    'SwSTEP 2.0',
    'SolidWorks 2017',
    '' );
FILE_SCHEMA (( 'CONFIG_CONTROL_DESIGN' ));
ENDSEC;

DATA;
#1 = CARTESIAN_POINT ( 'NONE',  ( 4.599999999999999600, 5.633375276077824100E-016, -1.650000000000000100 ) ) ;
#2 = EDGE_CURVE ( 'NONE', #105, #494, #309, .T. ) ;
#3 = APPROVAL_DATE_TIME ( #165, #572 ) ;
#4 = VECTOR ( 'NONE', #526, 1000.000000000000100 ) ;
#5 = VERTEX_POINT ( 'NONE', #679 ) ;
#6 = ADVANCED_FACE ( 'NONE', ( #348 ), #757, .T. ) ;
#7 = DIRECTION ( 'NONE',  ( -0.0000000000000000000, -0.0000000000000000000, 1.000000000000000000 ) ) ;
#8 = DIRECTION ( 'NONE',  ( -1.000000000000000000, 0.0000000000000000000, 0.0000000000000000000 ) ) ;
#9 = ADVANCED_FACE ( 'NONE', ( #186 ), #557, .T. ) ;
#10 = CARTESIAN_POINT ( 'NONE',  ( 0.0000000000000000000, 0.0000000000000000000, 1.650000000000000100 ) ) ;
#11 = EDGE_LOOP ( 'NONE', ( #463, #313 ) ) ;
#12 = LOCAL_TIME ( 11, 42, 9.000000000000000000, #267 ) ;
#13 = ADVANCED_FACE ( 'NONE', ( #151, #28 ), #311, .F. ) ;
#14 = CIRCLE ( 'NONE', #464, 4.000000000000000000 ) ;
#15 = AXIS2_PLACEMENT_3D ( 'NONE', #667, #180, #365 ) ;
#16 = ORIENTED_EDGE ( 'NONE', *, *, #422, .T. ) ;
#17 = FACE_OUTER_BOUND ( 'NONE', #739, .T. ) ;
#18 = ORIENTED_EDGE ( 'NONE', *, *, #343, .F. ) ;
#19 = DIRECTION ( 'NONE',  ( -0.0000000000000000000, -0.0000000000000000000, 1.000000000000000000 ) ) ;
#20 = CARTESIAN_POINT ( 'NONE',  ( 0.0000000000000000000, 6.000000000000000000, 1.750000000000000200 ) ) ;
#21 = EDGE_CURVE ( 'NONE', #691, #335, #114, .T. ) ;
#22 = DIRECTION ( 'NONE',  ( -0.0000000000000000000, -0.0000000000000000000, 1.000000000000000000 ) ) ;
#23 = CARTESIAN_POINT ( 'NONE',  ( 5.900000000000002100, 7.286648454926753000E-016, 1.750000000000000200 ) ) ;
#24 = ORIENTED_EDGE ( 'NONE', *, *, #2, .F. ) ;
#25 = COORDINATED_UNIVERSAL_TIME_OFFSET ( 6, 0, .BEHIND. ) ;
#26 = CYLINDRICAL_SURFACE ( 'NONE', #213, 4.000000000000000000 ) ;
#27 = CARTESIAN_POINT ( 'NONE',  ( 0.0000000000000000000, 0.0000000000000000000, 0.0000000000000000000 ) ) ;
#28 = FACE_OUTER_BOUND ( 'NONE', #11, .T. ) ;
#29 = DIRECTION ( 'NONE',  ( 1.000000000000000000, 0.0000000000000000000, 0.0000000000000000000 ) ) ;
#30 = ORIENTED_EDGE ( 'NONE', *, *, #637, .T. ) ;
#31 = DIRECTION ( 'NONE',  ( 1.000000000000000000, 0.0000000000000000000, 0.0000000000000000000 ) ) ;
#32 = AXIS2_PLACEMENT_3D ( 'NONE', #142, #704, #439 ) ;
#33 = DIRECTION ( 'NONE',  ( -0.0000000000000000000, -0.0000000000000000000, -1.000000000000000000 ) ) ;
#34 = DIRECTION ( 'NONE',  ( -0.0000000000000000000, -0.0000000000000000000, 1.000000000000000000 ) ) ;
#35 = ORIENTED_EDGE ( 'NONE', *, *, #503, .F. ) ;
#36 = ORIENTED_EDGE ( 'NONE', *, *, #173, .T. ) ;
#37 = DIRECTION ( 'NONE',  ( 1.000000000000000000, 0.0000000000000000000, 0.0000000000000000000 ) ) ;
#38 = CYLINDRICAL_SURFACE ( 'NONE', #196, 5.300000000000000700 ) ;
#39 = FACE_OUTER_BOUND ( 'NONE', #349, .T. ) ;
#40 = EDGE_CURVE ( 'NONE', #521, #565, #719, .T. ) ;
#41 = ORIENTED_EDGE ( 'NONE', *, *, #56, .F. ) ;
#42 = DIRECTION ( 'NONE',  ( 0.0000000000000000000, 0.0000000000000000000, -1.000000000000000000 ) ) ;
#43 = CC_DESIGN_DATE_AND_TIME_ASSIGNMENT ( #781, #92, ( #634 ) ) ;
#44 = DIRECTION ( 'NONE',  ( -0.0000000000000000000, -0.0000000000000000000, -1.000000000000000000 ) ) ;
#45 = DATE_AND_TIME ( #199, #147 ) ;
#46 = APPROVAL_ROLE ( '' ) ;
#47 = CIRCLE ( 'NONE', #167, 6.000000000000000000 ) ;
#48 = CARTESIAN_POINT ( 'NONE',  ( 0.0000000000000000000, 0.0000000000000000000, -0.9500000000000000700 ) ) ;
#49 = EDGE_LOOP ( 'NONE', ( #217, #390 ) ) ;
#50 = ORIENTED_EDGE ( 'NONE', *, *, #721, .T. ) ;
#51 = DIRECTION ( 'NONE',  ( -0.0000000000000000000, -0.0000000000000000000, -1.000000000000000000 ) ) ;
#52 = DIRECTION ( 'NONE',  ( -0.0000000000000000000, -0.0000000000000000000, 1.000000000000000000 ) ) ;
#53 = EDGE_CURVE ( 'NONE', #419, #424, #138, .T. ) ;
#54 = CARTESIAN_POINT ( 'NONE',  ( 0.0000000000000000000, 0.0000000000000000000, 1.650000000000000100 ) ) ;
#55 = VECTOR ( 'NONE', #110, 1000.000000000000000 ) ;
#56 = EDGE_CURVE ( 'NONE', #424, #419, #666, .T. ) ;
#57 = DIRECTION ( 'NONE',  ( -0.0000000000000000000, -0.0000000000000000000, -1.000000000000000000 ) ) ;
#58 = EDGE_CURVE ( 'NONE', #99, #419, #338, .T. ) ;
#59 = CIRCLE ( 'NONE', #531, 5.300000000000000700 ) ;
#60 = CARTESIAN_POINT ( 'NONE',  ( -6.000000000000000000, 7.347880794884119700E-016, 1.750000000000000400 ) ) ;
#61 = CIRCLE ( 'NONE', #692, 4.099999999999997900 ) ;
#62 = ORIENTED_EDGE ( 'NONE', *, *, #637, .F. ) ;
#63 = DIRECTION ( 'NONE',  ( 0.0000000000000000000, 0.0000000000000000000, 1.000000000000000000 ) ) ;
#64 = CARTESIAN_POINT ( 'NONE',  ( 0.0000000000000000000, 6.000000000000000000, 1.750000000000000200 ) ) ;
#65 = DIRECTION ( 'NONE',  ( 0.0000000000000000000, 0.0000000000000000000, 1.000000000000000000 ) ) ;
#66 = DIRECTION ( 'NONE',  ( -0.0000000000000000000, -0.0000000000000000000, 1.000000000000000000 ) ) ;
#67 = CC_DESIGN_PERSON_AND_ORGANIZATION_ASSIGNMENT ( #469, #583, ( #648 ) ) ;
#68 = VECTOR ( 'NONE', #291, 1000.000000000000000 ) ;
#69 = VERTEX_POINT ( 'NONE', #690 ) ;
#70 = CARTESIAN_POINT ( 'NONE',  ( -4.599999999999999600, 5.633375276077824100E-016, 1.650000000000000100 ) ) ;
#71 = AXIS2_PLACEMENT_3D ( 'NONE', #434, #148, #750 ) ;
#72 = DESIGN_CONTEXT ( 'detailed design', #88, 'design' ) ;
#73 = ADVANCED_FACE ( 'NONE', ( #276, #232 ), #758, .F. ) ;
#74 = CARTESIAN_POINT ( 'NONE',  ( -6.799999999999999800, 8.327598234202001100E-016, -1.750000000000000000 ) ) ;
#75 = DIRECTION ( 'NONE',  ( 1.000000000000000000, 0.0000000000000000000, 0.0000000000000000000 ) ) ;
#76 = DIRECTION ( 'NONE',  ( 1.000000000000000000, 0.0000000000000000000, 0.0000000000000000000 ) ) ;
#77 = CYLINDRICAL_SURFACE ( 'NONE', #756, 6.000000000000000000 ) ;
#78 = AXIS2_PLACEMENT_3D ( 'NONE', #609, #613, #119 ) ;
#79 = CIRCLE ( 'NONE', #302, 4.099999999999999600 ) ;
#80 = EDGE_LOOP ( 'NONE', ( #499, #104, #257, #400 ) ) ;
#81 = CARTESIAN_POINT ( 'NONE',  ( 0.0000000000000000000, 0.0000000000000000000, -1.650000000000000100 ) ) ;
#82 = CARTESIAN_POINT ( 'NONE',  ( 0.0000000000000000000, 0.0000000000000000000, 1.750000000000000400 ) ) ;
#83 = DIRECTION ( 'NONE',  ( -0.0000000000000000000, -0.0000000000000000000, 1.000000000000000000 ) ) ;
#84 = DIRECTION ( 'NONE',  ( 1.000000000000000000, 0.0000000000000000000, 0.0000000000000000000 ) ) ;
#85 = DIRECTION ( 'NONE',  ( -0.0000000000000000000, -0.0000000000000000000, 1.000000000000000000 ) ) ;
#86 = EDGE_CURVE ( 'NONE', #391, #717, #325, .T. ) ;
#87 = LINE ( 'NONE', #1, #68 ) ;
#88 = APPLICATION_CONTEXT ( 'configuration controlled 3d designs of mechanical parts and assemblies' ) ;
#89 = ORIENTED_EDGE ( 'NONE', *, *, #319, .T. ) ;
#90 = ORIENTED_EDGE ( 'NONE', *, *, #440, .T. ) ;
#91 = CC_DESIGN_APPROVAL ( #156, ( #648 ) ) ;
#92 = DATE_TIME_ROLE ( 'classification_date' ) ;
#93 = CARTESIAN_POINT ( 'NONE',  ( 0.0000000000000000000, 0.0000000000000000000, -1.750000000000000200 ) ) ;
#94 = ORIENTED_EDGE ( 'NONE', *, *, #631, .T. ) ;
#95 = FACE_OUTER_BOUND ( 'NONE', #597, .T. ) ;
#96 = ORIENTED_EDGE ( 'NONE', *, *, #319, .F. ) ;
#97 = CIRCLE ( 'NONE', #549, 4.099999999999997900 ) ;
#98 = AXIS2_PLACEMENT_3D ( 'NONE', #536, #52, #661 ) ;
#99 = VERTEX_POINT ( 'NONE', #636 ) ;
#100 = CARTESIAN_POINT ( 'NONE',  ( 6.800000000000000700, 0.0000000000000000000, -0.9500000000000000700 ) ) ;
#101 = DIRECTION ( 'NONE',  ( 1.000000000000000000, 0.0000000000000000000, 0.0000000000000000000 ) ) ;
#102 = CONICAL_SURFACE ( 'NONE', #606, 5.900000000000002100, 0.7853981633974439500 ) ;
#103 = DIRECTION ( 'NONE',  ( -0.0000000000000000000, -0.0000000000000000000, 1.000000000000000000 ) ) ;
#104 = ORIENTED_EDGE ( 'NONE', *, *, #231, .T. ) ;
#105 = VERTEX_POINT ( 'NONE', #197 ) ;
#106 = AXIS2_PLACEMENT_3D ( 'NONE', #188, #747, #127 ) ;
#107 = CARTESIAN_POINT ( 'NONE',  ( -6.800000000000000700, 8.327598234202002100E-016, -0.9500000000000000700 ) ) ;
#108 = CARTESIAN_POINT ( 'NONE',  ( 0.0000000000000000000, 0.0000000000000000000, -1.749999999999999800 ) ) ;
#109 = EDGE_CURVE ( 'NONE', #274, #144, #113, .T. ) ;
#110 = DIRECTION ( 'NONE',  ( -0.0000000000000000000, -0.0000000000000000000, 1.000000000000000000 ) ) ;
#111 = FACE_BOUND ( 'NONE', #364, .T. ) ;
#112 = ORIENTED_EDGE ( 'NONE', *, *, #625, .T. ) ;
#113 = LINE ( 'NONE', #506, #479 ) ;
#114 = CIRCLE ( 'NONE', #759, 4.599999999999999600 ) ;
#115 = CARTESIAN_POINT ( 'NONE',  ( 0.0000000000000000000, 0.0000000000000000000, -1.650000000000000100 ) ) ;
#116 = EDGE_LOOP ( 'NONE', ( #292, #300, #735, #179 ) ) ;
#117 = CC_DESIGN_PERSON_AND_ORGANIZATION_ASSIGNMENT ( #725, #342, ( #634 ) ) ;
#118 = EDGE_LOOP ( 'NONE', ( #234, #488, #271, #379 ) ) ;
#119 = DIRECTION ( 'NONE',  ( 1.000000000000000000, 0.0000000000000000000, 0.0000000000000000000 ) ) ;
#120 = AXIS2_PLACEMENT_3D ( 'NONE', #265, #443, #84 ) ;
#121 = DATE_AND_TIME ( #761, #12 ) ;
#122 = DIRECTION ( 'NONE',  ( 0.0000000000000000000, 0.0000000000000000000, 1.000000000000000000 ) ) ;
#123 = CIRCLE ( 'NONE', #559, 5.300000000000000700 ) ;
#124 = VERTEX_POINT ( 'NONE', #639 ) ;
#125 = ADVANCED_FACE ( 'NONE', ( #462, #298 ), #430, .F. ) ;
#126 = AXIS2_PLACEMENT_3D ( 'NONE', #279, #786, #101 ) ;
#127 = DIRECTION ( 'NONE',  ( -1.000000000000000000, 0.0000000000000000000, 0.0000000000000000000 ) ) ;
#128 = ADVANCED_FACE ( 'NONE', ( #17 ), #754, .T. ) ;
#129 = DIRECTION ( 'NONE',  ( 1.000000000000000000, 0.0000000000000000000, 0.0000000000000000000 ) ) ;
#130 = EDGE_CURVE ( 'NONE', #222, #489, #178, .T. ) ;
#131 = DIRECTION ( 'NONE',  ( -0.0000000000000000000, -0.0000000000000000000, 1.000000000000000000 ) ) ;
#132 = EDGE_LOOP ( 'NONE', ( #702, #765 ) ) ;
#133 = DIRECTION ( 'NONE',  ( 1.000000000000000000, 0.0000000000000000000, 0.0000000000000000000 ) ) ;
#134 = LINE ( 'NONE', #416, #742 ) ;
#135 = LINE ( 'NONE', #404, #308 ) ;
#136 = ORIENTED_EDGE ( 'NONE', *, *, #677, .F. ) ;
#137 = CARTESIAN_POINT ( 'NONE',  ( 0.0000000000000000000, 0.0000000000000000000, 1.649999999999999900 ) ) ;
#138 = CIRCLE ( 'NONE', #71, 4.599999999999999600 ) ;
#139 = AXIS2_PLACEMENT_3D ( 'NONE', #157, #42, #646 ) ;
#140 = CARTESIAN_POINT ( 'NONE',  ( 4.000000000000000000, 0.0000000000000000000, 1.649999999999999900 ) ) ;
#141 = DIRECTION ( 'NONE',  ( -0.0000000000000000000, -0.0000000000000000000, 1.000000000000000000 ) ) ;
#142 = CARTESIAN_POINT ( 'NONE',  ( 0.0000000000000000000, 0.0000000000000000000, 1.750000000000000200 ) ) ;
#143 = DIRECTION ( 'NONE',  ( 0.0000000000000000000, -0.0000000000000000000, 1.000000000000000000 ) ) ;
#144 = VERTEX_POINT ( 'NONE', #576 ) ;
#145 = LOCAL_TIME ( 11, 42, 9.000000000000000000, #304 ) ;
#146 = DIRECTION ( 'NONE',  ( -0.0000000000000000000, -0.0000000000000000000, 1.000000000000000000 ) ) ;
#147 = LOCAL_TIME ( 11, 42, 9.000000000000000000, #470 ) ;
#148 = DIRECTION ( 'NONE',  ( 0.0000000000000000000, 0.0000000000000000000, 1.000000000000000000 ) ) ;
#149 = VERTEX_POINT ( 'NONE', #23 ) ;
#150 = VECTOR ( 'NONE', #251, 1000.000000000000000 ) ;
#151 = FACE_BOUND ( 'NONE', #785, .T. ) ;
#152 = EDGE_LOOP ( 'NONE', ( #18, #794, #619, #372 ) ) ;
#153 = DIRECTION ( 'NONE',  ( -1.000000000000000000, 0.0000000000000000000, 0.0000000000000000000 ) ) ;
#154 = ORIENTED_EDGE ( 'NONE', *, *, #652, .T. ) ;
#155 = DIRECTION ( 'NONE',  ( -1.000000000000000000, 0.0000000000000000000, 0.0000000000000000000 ) ) ;
#156 = APPROVAL ( #593, 'UNSPECIFIED' ) ;
#157 = CARTESIAN_POINT ( 'NONE',  ( 0.0000000000000000000, 6.800000000000000700, -0.9500000000000000700 ) ) ;
#158 = CARTESIAN_POINT ( 'NONE',  ( -5.900000000000002100, 0.0000000000000000000, 1.750000000000000200 ) ) ;
#159 = EDGE_CURVE ( 'NONE', #489, #222, #398, .T. ) ;
#160 = FACE_OUTER_BOUND ( 'NONE', #211, .T. ) ;
#161 = DIRECTION ( 'NONE',  ( 1.000000000000000000, 0.0000000000000000000, 0.0000000000000000000 ) ) ;
#162 = EDGE_CURVE ( 'NONE', #565, #144, #47, .T. ) ;
#163 = CC_DESIGN_APPROVAL ( #367, ( #634 ) ) ;
#164 = DIRECTION ( 'NONE',  ( 0.0000000000000000000, 0.0000000000000000000, -1.000000000000000000 ) ) ;
#165 = DATE_AND_TIME ( #305, #509 ) ;
#166 = FACE_OUTER_BOUND ( 'NONE', #585, .T. ) ;
#167 = AXIS2_PLACEMENT_3D ( 'NONE', #709, #587, #334 ) ;
#168 = EDGE_LOOP ( 'NONE', ( #603, #154, #256, #41 ) ) ;
#169 = ORIENTED_EDGE ( 'NONE', *, *, #652, .F. ) ;
#170 = ORIENTED_EDGE ( 'NONE', *, *, #284, .F. ) ;
#171 = CARTESIAN_POINT ( 'NONE',  ( -6.800000000000000700, 8.327598234202002100E-016, 1.750000000000000400 ) ) ;
#172 = DIRECTION ( 'NONE',  ( -0.0000000000000000000, -0.0000000000000000000, 1.000000000000000000 ) ) ;
#173 = EDGE_CURVE ( 'NONE', #647, #193, #629, .T. ) ;
#174 = DIRECTION ( 'NONE',  ( 0.0000000000000000000, 0.0000000000000000000, -1.000000000000000000 ) ) ;
#175 = CALENDAR_DATE ( 2017, 14, 12 ) ;
#176 = VERTEX_POINT ( 'NONE', #777 ) ;
#177 = CIRCLE ( 'NONE', #533, 4.000000000000000000 ) ;
#178 = CIRCLE ( 'NONE', #120, 4.599999999999999600 ) ;
#179 = ORIENTED_EDGE ( 'NONE', *, *, #673, .T. ) ;
#180 = DIRECTION ( 'NONE',  ( -0.0000000000000000000, -0.0000000000000000000, -1.000000000000000000 ) ) ;
#181 = ADVANCED_FACE ( 'NONE', ( #200, #672 ), #516, .F. ) ;
#182 = AXIS2_PLACEMENT_3D ( 'NONE', #82, #628, #255 ) ;
#183 = SHAPE_DEFINITION_REPRESENTATION ( #665, #318 ) ;
#184 = ADVANCED_FACE ( 'NONE', ( #510 ), #519, .T. ) ;
#185 = CYLINDRICAL_SURFACE ( 'NONE', #393, 5.300000000000000700 ) ;
#186 = FACE_OUTER_BOUND ( 'NONE', #460, .T. ) ;
#187 = ORIENTED_EDGE ( 'NONE', *, *, #408, .T. ) ;
#188 = CARTESIAN_POINT ( 'NONE',  ( 0.0000000000000000000, 0.0000000000000000000, 1.650000000000001700 ) ) ;
#189 = ADVANCED_FACE ( 'NONE', ( #315 ), #26, .F. ) ;
#190 = ORIENTED_EDGE ( 'NONE', *, *, #724, .F. ) ;
#191 = FACE_OUTER_BOUND ( 'NONE', #80, .T. ) ;
#192 = EDGE_CURVE ( 'NONE', #149, #565, #776, .T. ) ;
#193 = VERTEX_POINT ( 'NONE', #272 ) ;
#194 = DIRECTION ( 'NONE',  ( 0.0000000000000000000, 0.0000000000000000000, -1.000000000000000000 ) ) ;
#195 = EDGE_CURVE ( 'NONE', #494, #778, #79, .T. ) ;
#196 = AXIS2_PLACEMENT_3D ( 'NONE', #571, #33, #258 ) ;
#197 = CARTESIAN_POINT ( 'NONE',  ( -4.000000000000000000, 4.898587196589412800E-016, -1.650000000000000600 ) ) ;
#198 = ORIENTED_EDGE ( 'NONE', *, *, #602, .T. ) ;
#199 = CALENDAR_DATE ( 2017, 14, 12 ) ;
#200 = FACE_BOUND ( 'NONE', #789, .T. ) ;
#201 = CARTESIAN_POINT ( 'NONE',  ( 4.099999999999999600, 5.021051876504147400E-016, -1.749999999999999800 ) ) ;
#202 = VECTOR ( 'NONE', #249, 1000.000000000000100 ) ;
#203 = EDGE_LOOP ( 'NONE', ( #582, #409 ) ) ;
#204 = AXIS2_PLACEMENT_3D ( 'NONE', #712, #705, #37 ) ;
#205 = DIRECTION ( 'NONE',  ( -0.0000000000000000000, -0.0000000000000000000, 1.000000000000000000 ) ) ;
#206 = DIRECTION ( 'NONE',  ( 1.000000000000000000, 0.0000000000000000000, 0.0000000000000000000 ) ) ;
#207 = AXIS2_PLACEMENT_3D ( 'NONE', #555, #799, #428 ) ;
#208 = CARTESIAN_POINT ( 'NONE',  ( -5.300000000000000700, 0.0000000000000000000, -1.750000000000000200 ) ) ;
#209 = LINE ( 'NONE', #60, #356 ) ;
#210 = EDGE_CURVE ( 'NONE', #620, #778, #660, .T. ) ;
#211 = EDGE_LOOP ( 'NONE', ( #35, #472, #94, #262 ) ) ;
#212 = DIRECTION ( 'NONE',  ( 1.000000000000000000, 0.0000000000000000000, 0.0000000000000000000 ) ) ;
#213 = AXIS2_PLACEMENT_3D ( 'NONE', #771, #85, #586 ) ;
#214 = ORIENTED_EDGE ( 'NONE', *, *, #162, .F. ) ;
#215 = CIRCLE ( 'NONE', #126, 5.300000000000000700 ) ;
#216 = DIRECTION ( 'NONE',  ( 1.000000000000000000, 0.0000000000000000000, 0.0000000000000000000 ) ) ;
#217 = ORIENTED_EDGE ( 'NONE', *, *, #130, .F. ) ;
#218 = ORIENTED_EDGE ( 'NONE', *, *, #401, .F. ) ;
#219 = DIRECTION ( 'NONE',  ( 0.0000000000000000000, 0.0000000000000000000, 1.000000000000000000 ) ) ;
#220 = CARTESIAN_POINT ( 'NONE',  ( 5.300000000000000700, 0.0000000000000000000, 1.650000000000000100 ) ) ;
#221 = DIRECTION ( 'NONE',  ( 1.000000000000000000, 0.0000000000000000000, 0.0000000000000000000 ) ) ;
#222 = VERTEX_POINT ( 'NONE', #651 ) ;
#223 = AXIS2_PLACEMENT_3D ( 'NONE', #689, #366, #491 ) ;
#224 = ORIENTED_EDGE ( 'NONE', *, *, #159, .T. ) ;
#225 = DIRECTION ( 'NONE',  ( -0.0000000000000000000, -0.0000000000000000000, 1.000000000000000000 ) ) ;
#226 = CARTESIAN_POINT ( 'NONE',  ( 6.000000000000000000, 0.0000000000000000000, -0.9500000000000000700 ) ) ;
#227 = AXIS2_PLACEMENT_3D ( 'NONE', #601, #172, #216 ) ;
#228 = CARTESIAN_POINT ( 'NONE',  ( -5.300000000000000700, 6.490628035480972900E-016, 1.650000000000000100 ) ) ;
#229 = DATE_AND_TIME ( #175, #145 ) ;
#230 = LINE ( 'NONE', #425, #732 ) ;
#231 = EDGE_CURVE ( 'NONE', #105, #620, #347, .T. ) ;
#232 = FACE_BOUND ( 'NONE', #359, .T. ) ;
#233 =( GEOMETRIC_REPRESENTATION_CONTEXT ( 3 ) GLOBAL_UNCERTAINTY_ASSIGNED_CONTEXT ( ( #353 ) ) GLOBAL_UNIT_ASSIGNED_CONTEXT ( ( #645, #514, #512 ) ) REPRESENTATION_CONTEXT ( 'NONE', 'WORKASPACE' ) );
#234 = ORIENTED_EDGE ( 'NONE', *, *, #210, .F. ) ;
#235 = ADVANCED_FACE ( 'NONE', ( #166 ), #261, .F. ) ;
#236 = ORIENTED_EDGE ( 'NONE', *, *, #58, .F. ) ;
#237 = DIRECTION ( 'NONE',  ( -0.7071067811865383600, 8.659560562354821900E-017, 0.7071067811865567900 ) ) ;
#238 = ORIENTED_EDGE ( 'NONE', *, *, #766, .F. ) ;
#239 = AXIS2_PLACEMENT_3D ( 'NONE', #394, #466, #155 ) ;
#240 = ORIENTED_EDGE ( 'NONE', *, *, #590, .F. ) ;
#241 = DIRECTION ( 'NONE',  ( -1.000000000000000000, 0.0000000000000000000, -0.0000000000000000000 ) ) ;
#242 = ADVANCED_FACE ( 'NONE', ( #160 ), #185, .F. ) ;
#243 = DIRECTION ( 'NONE',  ( 1.000000000000000000, 0.0000000000000000000, -0.0000000000000000000 ) ) ;
#244 = CALENDAR_DATE ( 2017, 14, 12 ) ;
#245 = CONICAL_SURFACE ( 'NONE', #538, 4.000000000000000000, 0.7853981633974352900 ) ;
#246 = VERTEX_POINT ( 'NONE', #208 ) ;
#247 = AXIS2_PLACEMENT_3D ( 'NONE', #370, #682, #622 ) ;
#248 = ORIENTED_EDGE ( 'NONE', *, *, #109, .T. ) ;
#249 = DIRECTION ( 'NONE',  ( -0.7071067811865474600, 0.0000000000000000000, -0.7071067811865474600 ) ) ;
#250 = ORIENTED_EDGE ( 'NONE', *, *, #293, .F. ) ;
#251 = DIRECTION ( 'NONE',  ( -0.0000000000000000000, -0.0000000000000000000, 1.000000000000000000 ) ) ;
#252 = EDGE_CURVE ( 'NONE', #246, #527, #594, .T. ) ;
#253 = CARTESIAN_POINT ( 'NONE',  ( 4.000000000000000000, 0.0000000000000000000, -1.650000000000000600 ) ) ;
#254 = AXIS2_PLACEMENT_3D ( 'NONE', #108, #360, #540 ) ;
#255 = DIRECTION ( 'NONE',  ( 1.000000000000000000, 0.0000000000000000000, 0.0000000000000000000 ) ) ;
#256 = ORIENTED_EDGE ( 'NONE', *, *, #58, .T. ) ;
#257 = ORIENTED_EDGE ( 'NONE', *, *, #327, .T. ) ;
#258 = DIRECTION ( 'NONE',  ( -1.000000000000000000, 0.0000000000000000000, 0.0000000000000000000 ) ) ;
#259 = DIRECTION ( 'NONE',  ( -0.7071067811865444600, 0.0000000000000000000, -0.7071067811865505700 ) ) ;
#260 = ORIENTED_EDGE ( 'NONE', *, *, #673, .F. ) ;
#261 = CONICAL_SURFACE ( 'NONE', #748, 4.000000000000000000, 0.7853981633974352900 ) ;
#262 = ORIENTED_EDGE ( 'NONE', *, *, #684, .F. ) ;
#263 = AXIS2_PLACEMENT_3D ( 'NONE', #115, #411, #542 ) ;
#264 = CARTESIAN_POINT ( 'NONE',  ( 4.599999999999999600, 5.633375276077824100E-016, -1.650000000000000100 ) ) ;
#265 = CARTESIAN_POINT ( 'NONE',  ( 0.0000000000000000000, 0.0000000000000000000, -1.750000000000000200 ) ) ;
#266 = EDGE_CURVE ( 'NONE', #149, #274, #734, .T. ) ;
#267 = COORDINATED_UNIVERSAL_TIME_OFFSET ( 6, 0, .BEHIND. ) ;
#268 = CIRCLE ( 'NONE', #578, 6.800000000000000700 ) ;
#269 = DIRECTION ( 'NONE',  ( 1.000000000000000000, 0.0000000000000000000, 0.0000000000000000000 ) ) ;
#270 = ORIENTED_EDGE ( 'NONE', *, *, #503, .T. ) ;
#271 = ORIENTED_EDGE ( 'NONE', *, *, #2, .T. ) ;
#272 = CARTESIAN_POINT ( 'NONE',  ( 6.799999999999999800, 0.0000000000000000000, -1.750000000000000000 ) ) ;
#273 = EDGE_CURVE ( 'NONE', #391, #537, #215, .T. ) ;
#274 = VERTEX_POINT ( 'NONE', #158 ) ;
#275 = CIRCLE ( 'NONE', #518, 5.900000000000002100 ) ;
#276 = FACE_OUTER_BOUND ( 'NONE', #612, .T. ) ;
#277 = ORIENTED_EDGE ( 'NONE', *, *, #192, .F. ) ;
#278 = EDGE_LOOP ( 'NONE', ( #170, #329 ) ) ;
#279 = CARTESIAN_POINT ( 'NONE',  ( 0.0000000000000000000, 0.0000000000000000000, 1.650000000000000100 ) ) ;
#280 = ORIENTED_EDGE ( 'NONE', *, *, #374, .T. ) ;
#281 = DIRECTION ( 'NONE',  ( 0.0000000000000000000, 0.0000000000000000000, 1.000000000000000000 ) ) ;
#282 = DIRECTION ( 'NONE',  ( -0.0000000000000000000, -0.0000000000000000000, 1.000000000000000000 ) ) ;
#283 = ORIENTED_EDGE ( 'NONE', *, *, #162, .T. ) ;
#284 = EDGE_CURVE ( 'NONE', #193, #647, #487, .T. ) ;
#285 = APPROVAL_DATE_TIME ( #121, #367 ) ;
#286 = FACE_OUTER_BOUND ( 'NONE', #617, .T. ) ;
#287 = DIRECTION ( 'NONE',  ( -1.000000000000000000, 0.0000000000000000000, 0.0000000000000000000 ) ) ;
#288 = ORIENTED_EDGE ( 'NONE', *, *, #644, .T. ) ;
#289 = ORIENTED_EDGE ( 'NONE', *, *, #473, .F. ) ;
#290 = AXIS2_PLACEMENT_3D ( 'NONE', #322, #312, #29 ) ;
#291 = DIRECTION ( 'NONE',  ( -0.0000000000000000000, -0.0000000000000000000, -1.000000000000000000 ) ) ;
#292 = ORIENTED_EDGE ( 'NONE', *, *, #551, .F. ) ;
#293 = EDGE_CURVE ( 'NONE', #354, #297, #718, .T. ) ;
#294 = DIRECTION ( 'NONE',  ( 1.000000000000000000, 0.0000000000000000000, 0.0000000000000000000 ) ) ;
#295 = VECTOR ( 'NONE', #741, 1000.000000000000000 ) ;
#296 = AXIS2_PLACEMENT_3D ( 'NONE', #504, #495, #129 ) ;
#297 = VERTEX_POINT ( 'NONE', #100 ) ;
#298 = FACE_OUTER_BOUND ( 'NONE', #49, .T. ) ;
#299 = ORIENTED_EDGE ( 'NONE', *, *, #412, .F. ) ;
#300 = ORIENTED_EDGE ( 'NONE', *, *, #273, .F. ) ;
#301 = CARTESIAN_POINT ( 'NONE',  ( -4.000000000000000000, 4.898587196589412800E-016, 1.649999999999999900 ) ) ;
#302 = AXIS2_PLACEMENT_3D ( 'NONE', #392, #763, #774 ) ;
#303 = CARTESIAN_POINT ( 'NONE',  ( 4.599999999999999600, 5.633375276077824100E-016, -1.750000000000000200 ) ) ;
#304 = COORDINATED_UNIVERSAL_TIME_OFFSET ( 6, 0, .BEHIND. ) ;
#305 = CALENDAR_DATE ( 2017, 14, 12 ) ;
#306 = EDGE_CURVE ( 'NONE', #447, #176, #545, .T. ) ;
#307 = DIRECTION ( 'NONE',  ( 1.000000000000000000, 0.0000000000000000000, 0.0000000000000000000 ) ) ;
#308 = VECTOR ( 'NONE', #103, 1000.000000000000000 ) ;
#309 = LINE ( 'NONE', #421, #202 ) ;
#310 = CARTESIAN_POINT ( 'NONE',  ( 0.0000000000000000000, 0.0000000000000000000, 1.650000000000000100 ) ) ;
#311 = PLANE ( 'NONE',  #788 ) ;
#312 = DIRECTION ( 'NONE',  ( 0.0000000000000000000, 0.0000000000000000000, 1.000000000000000000 ) ) ;
#313 = ORIENTED_EDGE ( 'NONE', *, *, #56, .T. ) ;
#314 = CYLINDRICAL_SURFACE ( 'NONE', #296, 5.300000000000000700 ) ;
#315 = FACE_OUTER_BOUND ( 'NONE', #458, .T. ) ;
#316 = AXIS2_PLACEMENT_3D ( 'NONE', #588, #701, #339 ) ;
#317 = CARTESIAN_POINT ( 'NONE',  ( 0.0000000000000000000, 0.0000000000000000000, -1.750000000000000000 ) ) ;
#318 = ADVANCED_BREP_SHAPE_REPRESENTATION ( 'REV-49-1559', ( #738, #377 ), #233 ) ;
#319 = EDGE_CURVE ( 'NONE', #647, #354, #642, .T. ) ;
#320 = APPROVAL_STATUS ( 'not_yet_approved' ) ;
#321 = PRODUCT_RELATED_PRODUCT_CATEGORY ( 'detail', '', ( #442 ) ) ;
#322 = CARTESIAN_POINT ( 'NONE',  ( 0.0000000000000000000, 0.0000000000000000000, 1.750000000000000200 ) ) ;
#323 = APPROVAL_PERSON_ORGANIZATION ( #485, #572, #46 ) ;
#324 = DIRECTION ( 'NONE',  ( -0.0000000000000000000, -0.0000000000000000000, 1.000000000000000000 ) ) ;
#325 = LINE ( 'NONE', #635, #150 ) ;
#326 = ORIENTED_EDGE ( 'NONE', *, *, #644, .F. ) ;
#327 = EDGE_CURVE ( 'NONE', #620, #5, #135, .T. ) ;
#328 = CARTESIAN_POINT ( 'NONE',  ( 5.300000000000000700, 0.0000000000000000000, 1.750000000000000200 ) ) ;
#329 = ORIENTED_EDGE ( 'NONE', *, *, #173, .F. ) ;
#330 = DIRECTION ( 'NONE',  ( 0.7071067811865444600, 8.659560562354897100E-017, -0.7071067811865505700 ) ) ;
#331 = CARTESIAN_POINT ( 'NONE',  ( 4.099999999999997900, 0.0000000000000000000, 1.750000000000000200 ) ) ;
#332 = CARTESIAN_POINT ( 'NONE',  ( 4.099999999999999600, 5.021051876504147400E-016, -1.750000000000000000 ) ) ;
#333 = EDGE_LOOP ( 'NONE', ( #407, #270, #654, #767 ) ) ;
#334 = DIRECTION ( 'NONE',  ( -1.000000000000000000, 0.0000000000000000000, 0.0000000000000000000 ) ) ;
#335 = VERTEX_POINT ( 'NONE', #534 ) ;
#336 = CIRCLE ( 'NONE', #254, 4.099999999999999600 ) ;
#337 = APPROVAL_ROLE ( '' ) ;
#338 = LINE ( 'NONE', #373, #650 ) ;
#339 = DIRECTION ( 'NONE',  ( 1.000000000000000000, 0.0000000000000000000, 0.0000000000000000000 ) ) ;
#340 = EDGE_CURVE ( 'NONE', #193, #297, #782, .T. ) ;
#341 = AXIS2_PLACEMENT_3D ( 'NONE', #310, #122, #243 ) ;
#342 = PERSON_AND_ORGANIZATION_ROLE ( 'classification_officer' ) ;
#343 = EDGE_CURVE ( 'NONE', #537, #391, #381, .T. ) ;
#344 = DATE_TIME_ROLE ( 'creation_date' ) ;
#345 = PERSON_AND_ORGANIZATION ( #584, #659 ) ;
#346 = ORIENTED_EDGE ( 'NONE', *, *, #440, .F. ) ;
#347 = CIRCLE ( 'NONE', #204, 4.000000000000000000 ) ;
#348 = FACE_OUTER_BOUND ( 'NONE', #168, .T. ) ;
#349 = EDGE_LOOP ( 'NONE', ( #346, #240, #730, #410 ) ) ;
#350 = ORIENTED_EDGE ( 'NONE', *, *, #684, .T. ) ;
#351 = CARTESIAN_POINT ( 'NONE',  ( 0.0000000000000000000, 0.0000000000000000000, 1.750000000000000200 ) ) ;
#352 = CARTESIAN_POINT ( 'NONE',  ( -4.599999999999999600, 5.633375276077824100E-016, 1.750000000000000200 ) ) ;
#353 = UNCERTAINTY_MEASURE_WITH_UNIT (LENGTH_MEASURE( 1.000000000000000100E-005 ), #645, 'distance_accuracy_value', 'NONE');
#354 = VERTEX_POINT ( 'NONE', #107 ) ;
#355 = CARTESIAN_POINT ( 'NONE',  ( 5.300000000000000700, 6.490628035480972900E-016, -1.650000000000000100 ) ) ;
#356 = VECTOR ( 'NONE', #225, 1000.000000000000000 ) ;
#357 = CARTESIAN_POINT ( 'NONE',  ( -4.000000000000000000, 4.898587196589412800E-016, 1.649999999999999900 ) ) ;
#358 = AXIS2_PLACEMENT_3D ( 'NONE', #561, #141, #570 ) ;
#359 = EDGE_LOOP ( 'NONE', ( #260, #218 ) ) ;
#360 = DIRECTION ( 'NONE',  ( -0.0000000000000000000, -0.0000000000000000000, 1.000000000000000000 ) ) ;
#361 = EDGE_LOOP ( 'NONE', ( #413, #727 ) ) ;
#362 = FACE_OUTER_BOUND ( 'NONE', #688, .T. ) ;
#363 = CIRCLE ( 'NONE', #496, 5.300000000000000700 ) ;
#364 = EDGE_LOOP ( 'NONE', ( #544, #169 ) ) ;
#365 = DIRECTION ( 'NONE',  ( -1.000000000000000000, 0.0000000000000000000, 0.0000000000000000000 ) ) ;
#366 = DIRECTION ( 'NONE',  ( 0.0000000000000000000, 0.0000000000000000000, 1.000000000000000000 ) ) ;
#367 = APPROVAL ( #525, 'UNSPECIFIED' ) ;
#368 = CARTESIAN_POINT ( 'NONE',  ( 0.0000000000000000000, 0.0000000000000000000, 1.750000000000000400 ) ) ;
#369 = AXIS2_PLACEMENT_3D ( 'NONE', #604, #219, #221 ) ;
#370 = CARTESIAN_POINT ( 'NONE',  ( 0.0000000000000000000, 0.0000000000000000000, 1.650000000000000100 ) ) ;
#371 = VECTOR ( 'NONE', #237, 1000.000000000000000 ) ;
#372 = ORIENTED_EDGE ( 'NONE', *, *, #86, .F. ) ;
#373 = CARTESIAN_POINT ( 'NONE',  ( 4.599999999999999600, 0.0000000000000000000, 1.650000000000000100 ) ) ;
#374 = EDGE_CURVE ( 'NONE', #99, #681, #417, .T. ) ;
#375 = DIRECTION ( 'NONE',  ( -1.000000000000000000, 0.0000000000000000000, 0.0000000000000000000 ) ) ;
#376 = ORIENTED_EDGE ( 'NONE', *, *, #21, .F. ) ;
#377 = AXIS2_PLACEMENT_3D ( 'NONE', #27, #454, #31 ) ;
#378 = EDGE_LOOP ( 'NONE', ( #50, #773 ) ) ;
#379 = ORIENTED_EDGE ( 'NONE', *, *, #562, .F. ) ;
#380 = CIRCLE ( 'NONE', #492, 6.000000000000000000 ) ;
#381 = CIRCLE ( 'NONE', #731, 5.300000000000000700 ) ;
#382 = ORIENTED_EDGE ( 'NONE', *, *, #195, .F. ) ;
#383 = DIRECTION ( 'NONE',  ( -0.0000000000000000000, -0.0000000000000000000, 1.000000000000000000 ) ) ;
#384 = DIRECTION ( 'NONE',  ( 0.0000000000000000000, 0.0000000000000000000, -1.000000000000000000 ) ) ;
#385 = CARTESIAN_POINT ( 'NONE',  ( 0.0000000000000000000, 0.0000000000000000000, 1.750000000000000200 ) ) ;
#386 = CARTESIAN_POINT ( 'NONE',  ( 6.800000000000000700, 0.0000000000000000000, 1.750000000000000400 ) ) ;
#387 = APPROVAL_PERSON_ORGANIZATION ( #477, #367, #522 ) ;
#388 = PERSON_AND_ORGANIZATION_ROLE ( 'design_owner' ) ;
#389 = FACE_OUTER_BOUND ( 'NONE', #693, .T. ) ;
#390 = ORIENTED_EDGE ( 'NONE', *, *, #159, .F. ) ;
#391 = VERTEX_POINT ( 'NONE', #220 ) ;
#392 = CARTESIAN_POINT ( 'NONE',  ( 0.0000000000000000000, 0.0000000000000000000, -1.749999999999999800 ) ) ;
#393 = AXIS2_PLACEMENT_3D ( 'NONE', #596, #713, #457 ) ;
#394 = CARTESIAN_POINT ( 'NONE',  ( 0.0000000000000000000, 0.0000000000000000000, 1.750000000000000200 ) ) ;
#395 = PERSON_AND_ORGANIZATION ( #584, #659 ) ;
#396 = FACE_OUTER_BOUND ( 'NONE', #437, .T. ) ;
#397 = ORIENTED_EDGE ( 'NONE', *, *, #306, .F. ) ;
#398 = CIRCLE ( 'NONE', #358, 4.599999999999999600 ) ;
#399 = DIRECTION ( 'NONE',  ( -1.000000000000000000, 0.0000000000000000000, 0.0000000000000000000 ) ) ;
#400 = ORIENTED_EDGE ( 'NONE', *, *, #590, .T. ) ;
#401 = EDGE_CURVE ( 'NONE', #124, #717, #363, .T. ) ;
#402 = DIRECTION ( 'NONE',  ( 1.000000000000000000, 0.0000000000000000000, 0.0000000000000000000 ) ) ;
#403 = AXIS2_PLACEMENT_3D ( 'NONE', #483, #482, #607 ) ;
#404 = CARTESIAN_POINT ( 'NONE',  ( 4.000000000000000000, 0.0000000000000000000, 1.750000000000000400 ) ) ;
#405 = VECTOR ( 'NONE', #66, 1000.000000000000000 ) ;
#406 = ORIENTED_EDGE ( 'NONE', *, *, #663, .F. ) ;
#407 = ORIENTED_EDGE ( 'NONE', *, *, #724, .T. ) ;
#408 = EDGE_CURVE ( 'NONE', #768, #643, #97, .T. ) ;
#409 = ORIENTED_EDGE ( 'NONE', *, *, #562, .T. ) ;
#410 = ORIENTED_EDGE ( 'NONE', *, *, #422, .F. ) ;
#411 = DIRECTION ( 'NONE',  ( 0.0000000000000000000, 0.0000000000000000000, -1.000000000000000000 ) ) ;
#412 = EDGE_CURVE ( 'NONE', #620, #105, #697, .T. ) ;
#413 = ORIENTED_EDGE ( 'NONE', *, *, #273, .T. ) ;
#414 = AXIS2_PLACEMENT_3D ( 'NONE', #10, #65, #680 ) ;
#415 = CONICAL_SURFACE ( 'NONE', #669, 4.099999999999999600, 0.7853981633974482800 ) ;
#416 = CARTESIAN_POINT ( 'NONE',  ( -5.300000000000000700, 6.490628035480972900E-016, 1.650000000000000100 ) ) ;
#417 = CIRCLE ( 'NONE', #369, 4.599999999999999600 ) ;
#418 = ORIENTED_EDGE ( 'NONE', *, *, #109, .F. ) ;
#419 = VERTEX_POINT ( 'NONE', #475 ) ;
#420 = AXIS2_PLACEMENT_3D ( 'NONE', #541, #796, #294 ) ;
#421 = CARTESIAN_POINT ( 'NONE',  ( -4.099999999999999600, 0.0000000000000000000, -1.750000000000000000 ) ) ;
#422 = EDGE_CURVE ( 'NONE', #643, #768, #61, .T. ) ;
#423 = CIRCLE ( 'NONE', #621, 6.000000000000000000 ) ;
#424 = VERTEX_POINT ( 'NONE', #352 ) ;
#425 = CARTESIAN_POINT ( 'NONE',  ( -4.599999999999999600, 0.0000000000000000000, -1.650000000000000100 ) ) ;
#426 = ADVANCED_FACE ( 'NONE', ( #435 ), #685, .T. ) ;
#427 = CARTESIAN_POINT ( 'NONE',  ( 0.0000000000000000000, 0.0000000000000000000, 1.650000000000000100 ) ) ;
#428 = DIRECTION ( 'NONE',  ( 1.000000000000000000, 0.0000000000000000000, 0.0000000000000000000 ) ) ;
#429 = CARTESIAN_POINT ( 'NONE',  ( 0.0000000000000000000, 0.0000000000000000000, 1.750000000000000200 ) ) ;
#430 = PLANE ( 'NONE',  #710 ) ;
#431 = AXIS2_PLACEMENT_3D ( 'NONE', #655, #51, #722 ) ;
#432 = DIRECTION ( 'NONE',  ( 1.000000000000000000, 0.0000000000000000000, 0.0000000000000000000 ) ) ;
#433 = FACE_OUTER_BOUND ( 'NONE', #152, .T. ) ;
#434 = CARTESIAN_POINT ( 'NONE',  ( 0.0000000000000000000, 0.0000000000000000000, 1.750000000000000200 ) ) ;
#435 = FACE_OUTER_BOUND ( 'NONE', #745, .T. ) ;
#436 = ORIENTED_EDGE ( 'NONE', *, *, #40, .T. ) ;
#437 = EDGE_LOOP ( 'NONE', ( #574, #539, #198, #595 ) ) ;
#438 = ORIENTED_EDGE ( 'NONE', *, *, #602, .F. ) ;
#439 = DIRECTION ( 'NONE',  ( -1.000000000000000000, 0.0000000000000000000, 0.0000000000000000000 ) ) ;
#440 = EDGE_CURVE ( 'NONE', #577, #643, #471, .T. ) ;
#441 = CARTESIAN_POINT ( 'NONE',  ( 0.0000000000000000000, 4.000000000000000000, -1.749999999999999800 ) ) ;
#442 = PRODUCT ( 'REV-49-1559', 'REV-49-1559', '', ( #769 ) ) ;
#443 = DIRECTION ( 'NONE',  ( -0.0000000000000000000, -0.0000000000000000000, 1.000000000000000000 ) ) ;
#444 = APPROVAL_DATE_TIME ( #229, #156 ) ;
#445 = VECTOR ( 'NONE', #282, 1000.000000000000000 ) ;
#446 = CC_DESIGN_PERSON_AND_ORGANIZATION_ASSIGNMENT ( #671, #388, ( #442 ) ) ;
#447 = VERTEX_POINT ( 'NONE', #480 ) ;
#448 = DIRECTION ( 'NONE',  ( 0.7071067811865383600, 0.0000000000000000000, 0.7071067811865567900 ) ) ;
#449 = EDGE_LOOP ( 'NONE', ( #190, #397 ) ) ;
#450 = ORIENTED_EDGE ( 'NONE', *, *, #266, .T. ) ;
#451 = ORIENTED_EDGE ( 'NONE', *, *, #721, .F. ) ;
#452 = CARTESIAN_POINT ( 'NONE',  ( 0.0000000000000000000, 0.0000000000000000000, 1.750000000000000400 ) ) ;
#453 = ORIENTED_EDGE ( 'NONE', *, *, #599, .F. ) ;
#454 = DIRECTION ( 'NONE',  ( 0.0000000000000000000, 0.0000000000000000000, 1.000000000000000000 ) ) ;
#455 = CARTESIAN_POINT ( 'NONE',  ( 5.900000000000002100, 7.225416114969386200E-016, 1.750000000000000200 ) ) ;
#456 = EDGE_CURVE ( 'NONE', #681, #424, #567, .T. ) ;
#457 = DIRECTION ( 'NONE',  ( -1.000000000000000000, 0.0000000000000000000, 0.0000000000000000000 ) ) ;
#458 = EDGE_LOOP ( 'NONE', ( #511, #708, #112, #698 ) ) ;
#459 = SECURITY_CLASSIFICATION_LEVEL ( 'unclassified' ) ;
#460 = EDGE_LOOP ( 'NONE', ( #280, #700, #528, #236 ) ) ;
#461 = CYLINDRICAL_SURFACE ( 'NONE', #15, 4.599999999999999600 ) ;
#462 = FACE_BOUND ( 'NONE', #203, .T. ) ;
#463 = ORIENTED_EDGE ( 'NONE', *, *, #53, .T. ) ;
#464 = AXIS2_PLACEMENT_3D ( 'NONE', #137, #497, #678 ) ;
#465 = ORIENTED_EDGE ( 'NONE', *, *, #677, .T. ) ;
#466 = DIRECTION ( 'NONE',  ( -0.0000000000000000000, -0.0000000000000000000, 1.000000000000000000 ) ) ;
#467 = AXIS2_PLACEMENT_3D ( 'NONE', #452, #34, #212 ) ;
#468 = PERSON_AND_ORGANIZATION_ROLE ( 'creator' ) ;
#469 = PERSON_AND_ORGANIZATION ( #584, #659 ) ;
#470 = COORDINATED_UNIVERSAL_TIME_OFFSET ( 6, 0, .BEHIND. ) ;
#471 = LINE ( 'NONE', #301, #371 ) ;
#472 = ORIENTED_EDGE ( 'NONE', *, *, #306, .T. ) ;
#473 = EDGE_CURVE ( 'NONE', #69, #144, #209, .T. ) ;
#474 = DIRECTION ( 'NONE',  ( -0.0000000000000000000, -0.0000000000000000000, 1.000000000000000000 ) ) ;
#475 = CARTESIAN_POINT ( 'NONE',  ( 4.599999999999999600, 0.0000000000000000000, 1.750000000000000200 ) ) ;
#476 = AXIS2_PLACEMENT_3D ( 'NONE', #317, #752, #375 ) ;
#477 = PERSON_AND_ORGANIZATION ( #584, #659 ) ;
#478 = CYLINDRICAL_SURFACE ( 'NONE', #797, 6.800000000000000700 ) ;
#479 = VECTOR ( 'NONE', #259, 1000.000000000000000 ) ;
#480 = CARTESIAN_POINT ( 'NONE',  ( 5.300000000000000700, 6.490628035480972900E-016, -1.650000000000000100 ) ) ;
#481 = ADVANCED_FACE ( 'NONE', ( #39 ), #245, .F. ) ;
#482 = DIRECTION ( 'NONE',  ( 0.0000000000000000000, -0.0000000000000000000, 1.000000000000000000 ) ) ;
#483 = CARTESIAN_POINT ( 'NONE',  ( 0.0000000000000000000, 4.000000000000000000, -1.749999999999999800 ) ) ;
#484 = ADVANCED_FACE ( 'NONE', ( #191 ), #695, .F. ) ;
#485 = PERSON_AND_ORGANIZATION ( #584, #659 ) ;
#486 = DIRECTION ( 'NONE',  ( -1.000000000000000000, 0.0000000000000000000, 0.0000000000000000000 ) ) ;
#487 = CIRCLE ( 'NONE', #227, 6.799999999999999800 ) ;
#488 = ORIENTED_EDGE ( 'NONE', *, *, #231, .F. ) ;
#489 = VERTEX_POINT ( 'NONE', #303 ) ;
#490 = ADVANCED_FACE ( 'NONE', ( #530, #500 ), #662, .T. ) ;
#491 = DIRECTION ( 'NONE',  ( 1.000000000000000000, 0.0000000000000000000, 0.0000000000000000000 ) ) ;
#492 = AXIS2_PLACEMENT_3D ( 'NONE', #624, #131, #307 ) ;
#493 = DIRECTION ( 'NONE',  ( -0.0000000000000000000, -0.0000000000000000000, 1.000000000000000000 ) ) ;
#494 = VERTEX_POINT ( 'NONE', #670 ) ;
#495 = DIRECTION ( 'NONE',  ( -0.0000000000000000000, -0.0000000000000000000, 1.000000000000000000 ) ) ;
#496 = AXIS2_PLACEMENT_3D ( 'NONE', #715, #784, #720 ) ;
#497 = DIRECTION ( 'NONE',  ( 0.0000000000000000000, 0.0000000000000000000, 1.000000000000000000 ) ) ;
#498 = FACE_OUTER_BOUND ( 'NONE', #278, .T. ) ;
#499 = ORIENTED_EDGE ( 'NONE', *, *, #656, .F. ) ;
#500 = FACE_BOUND ( 'NONE', #132, .T. ) ;
#501 = ADVANCED_FACE ( 'NONE', ( #792, #498 ), #729, .F. ) ;
#502 = DIRECTION ( 'NONE',  ( -1.000000000000000000, 0.0000000000000000000, -0.0000000000000000000 ) ) ;
#503 = EDGE_CURVE ( 'NONE', #447, #527, #627, .T. ) ;
#504 = CARTESIAN_POINT ( 'NONE',  ( 0.0000000000000000000, 0.0000000000000000000, 1.650000000000000100 ) ) ;
#505 = AXIS2_PLACEMENT_3D ( 'NONE', #427, #19, #432 ) ;
#506 = CARTESIAN_POINT ( 'NONE',  ( -5.900000000000002100, 0.0000000000000000000, 1.750000000000000200 ) ) ;
#507 = AXIS2_PLACEMENT_3D ( 'NONE', #93, #523, #161 ) ;
#508 = DIRECTION ( 'NONE',  ( -1.000000000000000000, 0.0000000000000000000, 0.0000000000000000000 ) ) ;
#509 = LOCAL_TIME ( 11, 42, 9.000000000000000000, #25 ) ;
#510 = FACE_OUTER_BOUND ( 'NONE', #744, .T. ) ;
#511 = ORIENTED_EDGE ( 'NONE', *, *, #412, .T. ) ;
#512 =( NAMED_UNIT ( * ) SI_UNIT ( $, .STERADIAN. ) SOLID_ANGLE_UNIT ( ) );
#513 = EDGE_CURVE ( 'NONE', #335, #691, #664, .T. ) ;
#514 =( NAMED_UNIT ( * ) PLANE_ANGLE_UNIT ( ) SI_UNIT ( $, .RADIAN. ) );
#515 = APPLICATION_PROTOCOL_DEFINITION ( 'international standard', 'config_control_design', 1994, #88 ) ;
#516 = PLANE ( 'NONE',  #139 ) ;
#517 = LINE ( 'NONE', #554, #295 ) ;
#518 = AXIS2_PLACEMENT_3D ( 'NONE', #429, #686, #8 ) ;
#519 = CYLINDRICAL_SURFACE ( 'NONE', #467, 6.000000000000000000 ) ;
#520 = DIRECTION ( 'NONE',  ( 1.000000000000000000, 0.0000000000000000000, 0.0000000000000000000 ) ) ;
#521 = VERTEX_POINT ( 'NONE', #226 ) ;
#522 = APPROVAL_ROLE ( '' ) ;
#523 = DIRECTION ( 'NONE',  ( -0.0000000000000000000, -0.0000000000000000000, 1.000000000000000000 ) ) ;
#524 = AXIS2_PLACEMENT_3D ( 'NONE', #653, #44, #598 ) ;
#525 = APPROVAL_STATUS ( 'not_yet_approved' ) ;
#526 = DIRECTION ( 'NONE',  ( 0.7071067811865474600, 8.659560562354932900E-017, -0.7071067811865474600 ) ) ;
#527 = VERTEX_POINT ( 'NONE', #615 ) ;
#528 = ORIENTED_EDGE ( 'NONE', *, *, #53, .F. ) ;
#529 = CONICAL_SURFACE ( 'NONE', #476, 4.099999999999999600, 0.7853981633974482800 ) ;
#530 = FACE_OUTER_BOUND ( 'NONE', #449, .T. ) ;
#531 = AXIS2_PLACEMENT_3D ( 'NONE', #633, #83, #755 ) ;
#532 = ORIENTED_EDGE ( 'NONE', *, *, #340, .F. ) ;
#533 = AXIS2_PLACEMENT_3D ( 'NONE', #798, #63, #486 ) ;
#534 = CARTESIAN_POINT ( 'NONE',  ( -4.599999999999999600, 0.0000000000000000000, -1.650000000000000100 ) ) ;
#535 = VECTOR ( 'NONE', #448, 1000.000000000000000 ) ;
#536 = CARTESIAN_POINT ( 'NONE',  ( 0.0000000000000000000, 0.0000000000000000000, -1.650000000000000100 ) ) ;
#537 = VERTEX_POINT ( 'NONE', #228 ) ;
#538 = AXIS2_PLACEMENT_3D ( 'NONE', #787, #736, #550 ) ;
#539 = ORIENTED_EDGE ( 'NONE', *, *, #473, .T. ) ;
#540 = DIRECTION ( 'NONE',  ( 1.000000000000000000, 0.0000000000000000000, 0.0000000000000000000 ) ) ;
#541 = CARTESIAN_POINT ( 'NONE',  ( 0.0000000000000000000, 0.0000000000000000000, 1.750000000000000400 ) ) ;
#542 = DIRECTION ( 'NONE',  ( 1.000000000000000000, 0.0000000000000000000, 0.0000000000000000000 ) ) ;
#543 = FACE_OUTER_BOUND ( 'NONE', #552, .T. ) ;
#544 = ORIENTED_EDGE ( 'NONE', *, *, #374, .F. ) ;
#545 = CIRCLE ( 'NONE', #98, 5.300000000000000700 ) ;
#546 = ORIENTED_EDGE ( 'NONE', *, *, #408, .F. ) ;
#547 = ADVANCED_FACE ( 'NONE', ( #362 ), #461, .T. ) ;
#548 = CARTESIAN_POINT ( 'NONE',  ( -4.599999999999999600, 5.633375276077824100E-016, 1.650000000000000100 ) ) ;
#549 = AXIS2_PLACEMENT_3D ( 'NONE', #780, #164, #287 ) ;
#550 = DIRECTION ( 'NONE',  ( 1.000000000000000000, 0.0000000000000000000, 0.0000000000000000000 ) ) ;
#551 = EDGE_CURVE ( 'NONE', #537, #124, #134, .T. ) ;
#552 = EDGE_LOOP ( 'NONE', ( #569, #89, #451, #532 ) ) ;
#553 = APPROVAL_PERSON_ORGANIZATION ( #345, #156, #337 ) ;
#554 = CARTESIAN_POINT ( 'NONE',  ( -5.300000000000000700, 0.0000000000000000000, -1.650000000000000100 ) ) ;
#555 = CARTESIAN_POINT ( 'NONE',  ( 0.0000000000000000000, 0.0000000000000000000, 1.650000000000000100 ) ) ;
#556 = ORIENTED_EDGE ( 'NONE', *, *, #192, .T. ) ;
#557 = CYLINDRICAL_SURFACE ( 'NONE', #247, 4.599999999999999600 ) ;
#558 = CARTESIAN_POINT ( 'NONE',  ( -4.000000000000000000, 4.898587196589412800E-016, 1.750000000000000400 ) ) ;
#559 = AXIS2_PLACEMENT_3D ( 'NONE', #81, #205, #76 ) ;
#560 = DIRECTION ( 'NONE',  ( -0.0000000000000000000, -0.0000000000000000000, -1.000000000000000000 ) ) ;
#561 = CARTESIAN_POINT ( 'NONE',  ( 0.0000000000000000000, 0.0000000000000000000, -1.750000000000000200 ) ) ;
#562 = EDGE_CURVE ( 'NONE', #778, #494, #336, .T. ) ;
#563 = DIRECTION ( 'NONE',  ( -0.0000000000000000000, -0.0000000000000000000, -1.000000000000000000 ) ) ;
#564 = LOCAL_TIME ( 11, 42, 9.000000000000000000, #589 ) ;
#565 = VERTEX_POINT ( 'NONE', #605 ) ;
#566 = CIRCLE ( 'NONE', #223, 5.300000000000000700 ) ;
#567 = LINE ( 'NONE', #548, #55 ) ;
#568 = CARTESIAN_POINT ( 'NONE',  ( 0.0000000000000000000, 0.0000000000000000000, -0.9500000000000000700 ) ) ;
#569 = ORIENTED_EDGE ( 'NONE', *, *, #284, .T. ) ;
#570 = DIRECTION ( 'NONE',  ( 1.000000000000000000, 0.0000000000000000000, 0.0000000000000000000 ) ) ;
#571 = CARTESIAN_POINT ( 'NONE',  ( 0.0000000000000000000, 0.0000000000000000000, -1.650000000000000100 ) ) ;
#572 = APPROVAL ( #320, 'UNSPECIFIED' ) ;
#573 = CARTESIAN_POINT ( 'NONE',  ( 0.0000000000000000000, 0.0000000000000000000, -0.9500000000000000700 ) ) ;
#574 = ORIENTED_EDGE ( 'NONE', *, *, #663, .T. ) ;
#575 = ORIENTED_EDGE ( 'NONE', *, *, #340, .T. ) ;
#576 = CARTESIAN_POINT ( 'NONE',  ( -6.000000000000000000, 7.347880794884119700E-016, 1.650000000000001700 ) ) ;
#577 = VERTEX_POINT ( 'NONE', #357 ) ;
#578 = AXIS2_PLACEMENT_3D ( 'NONE', #573, #22, #206 ) ;
#579 = APPLICATION_PROTOCOL_DEFINITION ( 'international standard', 'config_control_design', 1994, #694 ) ;
#580 = CARTESIAN_POINT ( 'NONE',  ( 0.0000000000000000000, 0.0000000000000000000, 1.649999999999999900 ) ) ;
#581 = FACE_OUTER_BOUND ( 'NONE', #333, .T. ) ;
#582 = ORIENTED_EDGE ( 'NONE', *, *, #195, .T. ) ;
#583 = PERSON_AND_ORGANIZATION_ROLE ( 'creator' ) ;
#584 = PERSON ( 'UNSPECIFIED', 'UNSPECIFIED', 'UNSPECIFIED', ('UNSPECIFIED'), ('UNSPECIFIED'), ('UNSPECIFIED') ) ;
#585 = EDGE_LOOP ( 'NONE', ( #793, #90, #546, #238 ) ) ;
#586 = DIRECTION ( 'NONE',  ( 1.000000000000000000, 0.0000000000000000000, 0.0000000000000000000 ) ) ;
#587 = DIRECTION ( 'NONE',  ( 0.0000000000000000000, 0.0000000000000000000, -1.000000000000000000 ) ) ;
#588 = CARTESIAN_POINT ( 'NONE',  ( 0.0000000000000000000, 0.0000000000000000000, -1.750000000000000000 ) ) ;
#589 = COORDINATED_UNIVERSAL_TIME_OFFSET ( 6, 0, .BEHIND. ) ;
#590 = EDGE_CURVE ( 'NONE', #5, #577, #177, .T. ) ;
#591 = CYLINDRICAL_SURFACE ( 'NONE', #505, 5.300000000000000700 ) ;
#592 = PRODUCT_DEFINITION ( 'UNKNOWN', '', #648, #72 ) ;
#593 = APPROVAL_STATUS ( 'not_yet_approved' ) ;
#594 = CIRCLE ( 'NONE', #507, 5.300000000000000700 ) ;
#595 = ORIENTED_EDGE ( 'NONE', *, *, #40, .F. ) ;
#596 = CARTESIAN_POINT ( 'NONE',  ( 0.0000000000000000000, 0.0000000000000000000, -1.650000000000000100 ) ) ;
#597 = EDGE_LOOP ( 'NONE', ( #277, #62, #248, #214 ) ) ;
#598 = DIRECTION ( 'NONE',  ( -1.000000000000000000, 0.0000000000000000000, 0.0000000000000000000 ) ) ;
#599 = EDGE_CURVE ( 'NONE', #691, #489, #87, .T. ) ;
#600 = DIRECTION ( 'NONE',  ( 1.000000000000000000, 0.0000000000000000000, 0.0000000000000000000 ) ) ;
#601 = CARTESIAN_POINT ( 'NONE',  ( 0.0000000000000000000, 0.0000000000000000000, -1.750000000000000000 ) ) ;
#602 = EDGE_CURVE ( 'NONE', #144, #565, #775, .T. ) ;
#603 = ORIENTED_EDGE ( 'NONE', *, *, #456, .F. ) ;
#604 = CARTESIAN_POINT ( 'NONE',  ( 0.0000000000000000000, 0.0000000000000000000, 1.650000000000000100 ) ) ;
#605 = CARTESIAN_POINT ( 'NONE',  ( 6.000000000000000000, 0.0000000000000000000, 1.650000000000001700 ) ) ;
#606 = AXIS2_PLACEMENT_3D ( 'NONE', #385, #384, #153 ) ;
#607 = DIRECTION ( 'NONE',  ( 1.000000000000000000, 0.0000000000000000000, 0.0000000000000000000 ) ) ;
#608 = VECTOR ( 'NONE', #57, 1000.000000000000000 ) ;
#609 = CARTESIAN_POINT ( 'NONE',  ( 0.0000000000000000000, 0.0000000000000000000, -1.650000000000000100 ) ) ;
#610 = VECTOR ( 'NONE', #723, 1000.000000000000000 ) ;
#611 = AXIS2_PLACEMENT_3D ( 'NONE', #20, #194, #502 ) ;
#612 = EDGE_LOOP ( 'NONE', ( #30, #450 ) ) ;
#613 = DIRECTION ( 'NONE',  ( -0.0000000000000000000, -0.0000000000000000000, 1.000000000000000000 ) ) ;
#614 = ADVANCED_FACE ( 'NONE', ( #111, #791 ), #728, .T. ) ;
#615 = CARTESIAN_POINT ( 'NONE',  ( 5.300000000000000700, 6.490628035480972900E-016, -1.750000000000000200 ) ) ;
#616 = DIRECTION ( 'NONE',  ( 0.0000000000000000000, 0.0000000000000000000, -1.000000000000000000 ) ) ;
#617 = EDGE_LOOP ( 'NONE', ( #795, #556, #438, #418 ) ) ;
#618 = VECTOR ( 'NONE', #330, 1000.000000000000000 ) ;
#619 = ORIENTED_EDGE ( 'NONE', *, *, #401, .T. ) ;
#620 = VERTEX_POINT ( 'NONE', #253 ) ;
#621 = AXIS2_PLACEMENT_3D ( 'NONE', #568, #762, #269 ) ;
#622 = DIRECTION ( 'NONE',  ( 1.000000000000000000, 0.0000000000000000000, 0.0000000000000000000 ) ) ;
#623 = ADVANCED_FACE ( 'NONE', ( #396 ), #77, .T. ) ;
#624 = CARTESIAN_POINT ( 'NONE',  ( 0.0000000000000000000, 0.0000000000000000000, -0.9500000000000000700 ) ) ;
#625 = EDGE_CURVE ( 'NONE', #577, #5, #14, .T. ) ;
#626 = DIRECTION ( 'NONE',  ( 1.000000000000000000, 0.0000000000000000000, 0.0000000000000000000 ) ) ;
#627 = LINE ( 'NONE', #355, #608 ) ;
#628 = DIRECTION ( 'NONE',  ( -0.0000000000000000000, -0.0000000000000000000, 1.000000000000000000 ) ) ;
#629 = CIRCLE ( 'NONE', #316, 6.799999999999999800 ) ;
#630 = ADVANCED_FACE ( 'NONE', ( #433 ), #314, .F. ) ;
#631 = EDGE_CURVE ( 'NONE', #176, #246, #517, .T. ) ;
#632 = EDGE_LOOP ( 'NONE', ( #657, #350 ) ) ;
#633 = CARTESIAN_POINT ( 'NONE',  ( 0.0000000000000000000, 0.0000000000000000000, -1.750000000000000200 ) ) ;
#634 = SECURITY_CLASSIFICATION ( '', '', #459 ) ;
#635 = CARTESIAN_POINT ( 'NONE',  ( 5.300000000000000700, 0.0000000000000000000, 1.650000000000000100 ) ) ;
#636 = CARTESIAN_POINT ( 'NONE',  ( 4.599999999999999600, 0.0000000000000000000, 1.650000000000000100 ) ) ;
#637 = EDGE_CURVE ( 'NONE', #274, #149, #275, .T. ) ;
#638 = CARTESIAN_POINT ( 'NONE',  ( 0.0000000000000000000, 0.0000000000000000000, -1.750000000000000000 ) ) ;
#639 = CARTESIAN_POINT ( 'NONE',  ( -5.300000000000000700, 6.490628035480972900E-016, 1.750000000000000200 ) ) ;
#640 = PERSON_AND_ORGANIZATION ( #584, #659 ) ;
#641 = ORIENTED_EDGE ( 'NONE', *, *, #599, .T. ) ;
#642 = LINE ( 'NONE', #171, #610 ) ;
#643 = VERTEX_POINT ( 'NONE', #749 ) ;
#644 = EDGE_CURVE ( 'NONE', #335, #222, #230, .T. ) ;
#645 =( LENGTH_UNIT ( ) NAMED_UNIT ( * ) SI_UNIT ( .MILLI., .METRE. ) );
#646 = DIRECTION ( 'NONE',  ( -1.000000000000000000, 0.0000000000000000000, -0.0000000000000000000 ) ) ;
#647 = VERTEX_POINT ( 'NONE', #74 ) ;
#648 = PRODUCT_DEFINITION_FORMATION_WITH_SPECIFIED_SOURCE ( 'ANY', '', #442, .NOT_KNOWN. ) ;
#649 = LINE ( 'NONE', #558, #405 ) ;
#650 = VECTOR ( 'NONE', #383, 1000.000000000000000 ) ;
#651 = CARTESIAN_POINT ( 'NONE',  ( -4.599999999999999600, 0.0000000000000000000, -1.750000000000000200 ) ) ;
#652 = EDGE_CURVE ( 'NONE', #681, #99, #753, .T. ) ;
#653 = CARTESIAN_POINT ( 'NONE',  ( 0.0000000000000000000, 0.0000000000000000000, -1.650000000000000100 ) ) ;
#654 = ORIENTED_EDGE ( 'NONE', *, *, #252, .F. ) ;
#655 = CARTESIAN_POINT ( 'NONE',  ( 0.0000000000000000000, 0.0000000000000000000, -1.650000000000000600 ) ) ;
#656 = EDGE_CURVE ( 'NONE', #105, #577, #649, .T. ) ;
#657 = ORIENTED_EDGE ( 'NONE', *, *, #252, .T. ) ;
#658 = CLOSED_SHELL ( 'NONE', ( #235, #675, #751, #547, #740, #9, #630, #623, #746, #189, #125, #13, #73, #484, #501, #128, #181, #184, #683, #614, #6, #490, #242, #426, #737, #733, #481 ) ) ;
#659 = ORGANIZATION ( 'UNSPECIFIED', 'UNSPECIFIED', '' ) ;
#660 = LINE ( 'NONE', #332, #4 ) ;
#661 = DIRECTION ( 'NONE',  ( 1.000000000000000000, 0.0000000000000000000, 0.0000000000000000000 ) ) ;
#662 = PLANE ( 'NONE',  #263 ) ;
#663 = EDGE_CURVE ( 'NONE', #521, #69, #380, .T. ) ;
#664 = CIRCLE ( 'NONE', #78, 4.599999999999999600 ) ;
#665 = PRODUCT_DEFINITION_SHAPE ( 'NONE', 'NONE',  #592 ) ;
#666 = CIRCLE ( 'NONE', #290, 4.599999999999999600 ) ;
#667 = CARTESIAN_POINT ( 'NONE',  ( 0.0000000000000000000, 0.0000000000000000000, -1.650000000000000100 ) ) ;
#668 = DIRECTION ( 'NONE',  ( -0.0000000000000000000, -0.0000000000000000000, 1.000000000000000000 ) ) ;
#669 = AXIS2_PLACEMENT_3D ( 'NONE', #638, #563, #508 ) ;
#670 = CARTESIAN_POINT ( 'NONE',  ( -4.099999999999999600, 0.0000000000000000000, -1.749999999999999800 ) ) ;
#671 = PERSON_AND_ORGANIZATION ( #584, #659 ) ;
#672 = FACE_OUTER_BOUND ( 'NONE', #378, .T. ) ;
#673 = EDGE_CURVE ( 'NONE', #717, #124, #566, .T. ) ;
#674 = VECTOR ( 'NONE', #493, 1000.000000000000000 ) ;
#675 = ADVANCED_FACE ( 'NONE', ( #389 ), #529, .F. ) ;
#676 = CARTESIAN_POINT ( 'NONE',  ( 6.000000000000000000, 0.0000000000000000000, 1.750000000000000400 ) ) ;
#677 = EDGE_CURVE ( 'NONE', #69, #521, #423, .T. ) ;
#678 = DIRECTION ( 'NONE',  ( -1.000000000000000000, 0.0000000000000000000, 0.0000000000000000000 ) ) ;
#679 = CARTESIAN_POINT ( 'NONE',  ( 4.000000000000000000, 0.0000000000000000000, 1.649999999999999900 ) ) ;
#680 = DIRECTION ( 'NONE',  ( 1.000000000000000000, 0.0000000000000000000, 0.0000000000000000000 ) ) ;
#681 = VERTEX_POINT ( 'NONE', #70 ) ;
#682 = DIRECTION ( 'NONE',  ( -0.0000000000000000000, -0.0000000000000000000, 1.000000000000000000 ) ) ;
#683 = ADVANCED_FACE ( 'NONE', ( #726 ), #591, .F. ) ;
#684 = EDGE_CURVE ( 'NONE', #527, #246, #59, .T. ) ;
#685 = CYLINDRICAL_SURFACE ( 'NONE', #524, 4.599999999999999600 ) ;
#686 = DIRECTION ( 'NONE',  ( -0.0000000000000000000, -0.0000000000000000000, 1.000000000000000000 ) ) ;
#687 = CC_DESIGN_PERSON_AND_ORGANIZATION_ASSIGNMENT ( #395, #711, ( #648 ) ) ;
#688 = EDGE_LOOP ( 'NONE', ( #376, #641, #224, #326 ) ) ;
#689 = CARTESIAN_POINT ( 'NONE',  ( 0.0000000000000000000, 0.0000000000000000000, 1.750000000000000200 ) ) ;
#690 = CARTESIAN_POINT ( 'NONE',  ( -6.000000000000000000, 7.347880794884119700E-016, -0.9500000000000000700 ) ) ;
#691 = VERTEX_POINT ( 'NONE', #264 ) ;
#692 = AXIS2_PLACEMENT_3D ( 'NONE', #351, #174, #399 ) ;
#693 = EDGE_LOOP ( 'NONE', ( #299, #707, #382, #24 ) ) ;
#694 = APPLICATION_CONTEXT ( 'configuration controlled 3d designs of mechanical parts and assemblies' ) ;
#695 = CYLINDRICAL_SURFACE ( 'NONE', #420, 4.000000000000000000 ) ;
#696 = CARTESIAN_POINT ( 'NONE',  ( 0.0000000000000000000, 0.0000000000000000000, -1.650000000000000100 ) ) ;
#697 = CIRCLE ( 'NONE', #431, 4.000000000000000000 ) ;
#698 = ORIENTED_EDGE ( 'NONE', *, *, #327, .F. ) ;
#699 = DIRECTION ( 'NONE',  ( 1.000000000000000000, 0.0000000000000000000, 0.0000000000000000000 ) ) ;
#700 = ORIENTED_EDGE ( 'NONE', *, *, #456, .T. ) ;
#701 = DIRECTION ( 'NONE',  ( -0.0000000000000000000, -0.0000000000000000000, 1.000000000000000000 ) ) ;
#702 = ORIENTED_EDGE ( 'NONE', *, *, #513, .T. ) ;
#703 = CC_DESIGN_DATE_AND_TIME_ASSIGNMENT ( #45, #344, ( #592 ) ) ;
#704 = DIRECTION ( 'NONE',  ( 0.0000000000000000000, 0.0000000000000000000, -1.000000000000000000 ) ) ;
#705 = DIRECTION ( 'NONE',  ( -0.0000000000000000000, -0.0000000000000000000, -1.000000000000000000 ) ) ;
#706 = CONICAL_SURFACE ( 'NONE', #32, 5.900000000000002100, 0.7853981633974439500 ) ;
#707 = ORIENTED_EDGE ( 'NONE', *, *, #210, .T. ) ;
#708 = ORIENTED_EDGE ( 'NONE', *, *, #656, .T. ) ;
#709 = CARTESIAN_POINT ( 'NONE',  ( 0.0000000000000000000, 0.0000000000000000000, 1.650000000000001700 ) ) ;
#710 = AXIS2_PLACEMENT_3D ( 'NONE', #441, #143, #133 ) ;
#711 = PERSON_AND_ORGANIZATION_ROLE ( 'design_supplier' ) ;
#712 = CARTESIAN_POINT ( 'NONE',  ( 0.0000000000000000000, 0.0000000000000000000, -1.650000000000000600 ) ) ;
#713 = DIRECTION ( 'NONE',  ( -0.0000000000000000000, -0.0000000000000000000, -1.000000000000000000 ) ) ;
#714 = CC_DESIGN_APPROVAL ( #572, ( #592 ) ) ;
#715 = CARTESIAN_POINT ( 'NONE',  ( 0.0000000000000000000, 0.0000000000000000000, 1.750000000000000200 ) ) ;
#716 = LINE ( 'NONE', #140, #535 ) ;
#717 = VERTEX_POINT ( 'NONE', #328 ) ;
#718 = CIRCLE ( 'NONE', #779, 6.800000000000000700 ) ;
#719 = LINE ( 'NONE', #676, #674 ) ;
#720 = DIRECTION ( 'NONE',  ( 1.000000000000000000, 0.0000000000000000000, 0.0000000000000000000 ) ) ;
#721 = EDGE_CURVE ( 'NONE', #297, #354, #268, .T. ) ;
#722 = DIRECTION ( 'NONE',  ( 1.000000000000000000, 0.0000000000000000000, 0.0000000000000000000 ) ) ;
#723 = DIRECTION ( 'NONE',  ( -0.0000000000000000000, -0.0000000000000000000, 1.000000000000000000 ) ) ;
#724 = EDGE_CURVE ( 'NONE', #176, #447, #123, .T. ) ;
#725 = PERSON_AND_ORGANIZATION ( #584, #659 ) ;
#726 = FACE_OUTER_BOUND ( 'NONE', #116, .T. ) ;
#727 = ORIENTED_EDGE ( 'NONE', *, *, #343, .T. ) ;
#728 = PLANE ( 'NONE',  #341 ) ;
#729 = PLANE ( 'NONE',  #403 ) ;
#730 = ORIENTED_EDGE ( 'NONE', *, *, #766, .T. ) ;
#731 = AXIS2_PLACEMENT_3D ( 'NONE', #54, #281, #402 ) ;
#732 = VECTOR ( 'NONE', #560, 1000.000000000000000 ) ;
#733 = ADVANCED_FACE ( 'NONE', ( #764 ), #415, .F. ) ;
#734 = CIRCLE ( 'NONE', #239, 5.900000000000002100 ) ;
#735 = ORIENTED_EDGE ( 'NONE', *, *, #86, .T. ) ;
#736 = DIRECTION ( 'NONE',  ( 0.0000000000000000000, 0.0000000000000000000, 1.000000000000000000 ) ) ;
#737 = ADVANCED_FACE ( 'NONE', ( #95 ), #706, .T. ) ;
#738 = MANIFOLD_SOLID_BREP ( 'Chamfer1', #658 ) ;
#739 = EDGE_LOOP ( 'NONE', ( #96, #36, #575, #250 ) ) ;
#740 = ADVANCED_FACE ( 'NONE', ( #581 ), #38, .F. ) ;
#741 = DIRECTION ( 'NONE',  ( -0.0000000000000000000, -0.0000000000000000000, -1.000000000000000000 ) ) ;
#742 = VECTOR ( 'NONE', #668, 1000.000000000000000 ) ;
#743 = CC_DESIGN_SECURITY_CLASSIFICATION ( #634, ( #648 ) ) ;
#744 = EDGE_LOOP ( 'NONE', ( #289, #465, #436, #283 ) ) ;
#745 = EDGE_LOOP ( 'NONE', ( #453, #790, #288, #783 ) ) ;
#746 = ADVANCED_FACE ( 'NONE', ( #543 ), #478, .T. ) ;
#747 = DIRECTION ( 'NONE',  ( 0.0000000000000000000, 0.0000000000000000000, -1.000000000000000000 ) ) ;
#748 = AXIS2_PLACEMENT_3D ( 'NONE', #580, #770, #520 ) ;
#749 = CARTESIAN_POINT ( 'NONE',  ( -4.099999999999997900, 5.021051876504145400E-016, 1.750000000000000200 ) ) ;
#750 = DIRECTION ( 'NONE',  ( 1.000000000000000000, 0.0000000000000000000, 0.0000000000000000000 ) ) ;
#751 = ADVANCED_FACE ( 'NONE', ( #286 ), #102, .T. ) ;
#752 = DIRECTION ( 'NONE',  ( -0.0000000000000000000, -0.0000000000000000000, -1.000000000000000000 ) ) ;
#753 = CIRCLE ( 'NONE', #414, 4.599999999999999600 ) ;
#754 = CYLINDRICAL_SURFACE ( 'NONE', #182, 6.800000000000000700 ) ;
#755 = DIRECTION ( 'NONE',  ( 1.000000000000000000, 0.0000000000000000000, 0.0000000000000000000 ) ) ;
#756 = AXIS2_PLACEMENT_3D ( 'NONE', #368, #7, #626 ) ;
#757 = CYLINDRICAL_SURFACE ( 'NONE', #207, 4.599999999999999600 ) ;
#758 = PLANE ( 'NONE',  #611 ) ;
#759 = AXIS2_PLACEMENT_3D ( 'NONE', #696, #324, #75 ) ;
#760 = CARTESIAN_POINT ( 'NONE',  ( 0.0000000000000000000, 0.0000000000000000000, 1.750000000000000400 ) ) ;
#761 = CALENDAR_DATE ( 2017, 14, 12 ) ;
#762 = DIRECTION ( 'NONE',  ( -0.0000000000000000000, -0.0000000000000000000, 1.000000000000000000 ) ) ;
#763 = DIRECTION ( 'NONE',  ( -0.0000000000000000000, -0.0000000000000000000, 1.000000000000000000 ) ) ;
#764 = FACE_OUTER_BOUND ( 'NONE', #118, .T. ) ;
#765 = ORIENTED_EDGE ( 'NONE', *, *, #21, .T. ) ;
#766 = EDGE_CURVE ( 'NONE', #5, #768, #716, .T. ) ;
#767 = ORIENTED_EDGE ( 'NONE', *, *, #631, .F. ) ;
#768 = VERTEX_POINT ( 'NONE', #331 ) ;
#769 = MECHANICAL_CONTEXT ( 'NONE', #694, 'mechanical' ) ;
#770 = DIRECTION ( 'NONE',  ( 0.0000000000000000000, 0.0000000000000000000, 1.000000000000000000 ) ) ;
#771 = CARTESIAN_POINT ( 'NONE',  ( 0.0000000000000000000, 0.0000000000000000000, 1.750000000000000400 ) ) ;
#772 = CC_DESIGN_PERSON_AND_ORGANIZATION_ASSIGNMENT ( #640, #468, ( #592 ) ) ;
#773 = ORIENTED_EDGE ( 'NONE', *, *, #293, .T. ) ;
#774 = DIRECTION ( 'NONE',  ( 1.000000000000000000, 0.0000000000000000000, 0.0000000000000000000 ) ) ;
#775 = CIRCLE ( 'NONE', #106, 6.000000000000000000 ) ;
#776 = LINE ( 'NONE', #455, #618 ) ;
#777 = CARTESIAN_POINT ( 'NONE',  ( -5.300000000000000700, 0.0000000000000000000, -1.650000000000000100 ) ) ;
#778 = VERTEX_POINT ( 'NONE', #201 ) ;
#779 = AXIS2_PLACEMENT_3D ( 'NONE', #48, #474, #600 ) ;
#780 = CARTESIAN_POINT ( 'NONE',  ( 0.0000000000000000000, 0.0000000000000000000, 1.750000000000000200 ) ) ;
#781 = DATE_AND_TIME ( #244, #564 ) ;
#782 = LINE ( 'NONE', #386, #445 ) ;
#783 = ORIENTED_EDGE ( 'NONE', *, *, #130, .T. ) ;
#784 = DIRECTION ( 'NONE',  ( 0.0000000000000000000, 0.0000000000000000000, 1.000000000000000000 ) ) ;
#785 = EDGE_LOOP ( 'NONE', ( #187, #16 ) ) ;
#786 = DIRECTION ( 'NONE',  ( 0.0000000000000000000, 0.0000000000000000000, 1.000000000000000000 ) ) ;
#787 = CARTESIAN_POINT ( 'NONE',  ( 0.0000000000000000000, 0.0000000000000000000, 1.649999999999999900 ) ) ;
#788 = AXIS2_PLACEMENT_3D ( 'NONE', #64, #616, #241 ) ;
#789 = EDGE_LOOP ( 'NONE', ( #406, #136 ) ) ;
#790 = ORIENTED_EDGE ( 'NONE', *, *, #513, .F. ) ;
#791 = FACE_OUTER_BOUND ( 'NONE', #361, .T. ) ;
#792 = FACE_BOUND ( 'NONE', #632, .T. ) ;
#793 = ORIENTED_EDGE ( 'NONE', *, *, #625, .F. ) ;
#794 = ORIENTED_EDGE ( 'NONE', *, *, #551, .T. ) ;
#795 = ORIENTED_EDGE ( 'NONE', *, *, #266, .F. ) ;
#796 = DIRECTION ( 'NONE',  ( -0.0000000000000000000, -0.0000000000000000000, 1.000000000000000000 ) ) ;
#797 = AXIS2_PLACEMENT_3D ( 'NONE', #760, #146, #699 ) ;
#798 = CARTESIAN_POINT ( 'NONE',  ( 0.0000000000000000000, 0.0000000000000000000, 1.649999999999999900 ) ) ;
#799 = DIRECTION ( 'NONE',  ( -0.0000000000000000000, -0.0000000000000000000, 1.000000000000000000 ) ) ;
ENDSEC;
END-ISO-10303-21;
