  0
SECTION
  2
HEADER
  9
$ACADVER
  1
AC1009
  9
$INSBASE
 10
0.0
 20
0.0
 30
0.0
  9
$EXTMIN
 10
0.0
 20
0.0
 30
0.0
  9
$EXTMAX
 10
0.0
 20
0.0
 30
0.0
  0
ENDSEC
  0
SECTION
  2
TABLES
  0
TABLE
  2
VPORT
 70
0
  0
ENDTAB
  0
TABLE
  2
LTYPE
 70
1
  0
LTYPE
  2
CONTINUOUS
 70
0
  3
Solid line
 72
65
 73
0
 40
0.0
  0
ENDTAB
  0
TABLE
  2
LAYER
 70
1
  0
LAYER
  2
0
 70
64
 62
7
  6
continuous
  0
ENDTAB
  0
TABLE
  2
STYLE
 70
1
  0
STYLE
  2
STANDARD
 70
0
 40
0
 41
1.0
 50
0.0
 71
0
 42
1
 3
ARIAL.TTF
 4

  0
ENDTAB
  0
TABLE
  2
VIEW
 70
0
  0
ENDTAB
  0
ENDSEC
  0
SECTION
  2
BLOCKS
  0
BLOCK
  8
0
  2
SHAPE2DVIEW001
 70
0
 10
0.0
 20
0.0
 30
0.0
  3
SHAPE2DVIEW001
  0
CIRCLE
  8
0
 62
0
 10
-1.24231323166e-22
 20
-9.76712704076e-23
 30
0.0
 40
150.0
  0
ARC
  8
0
 62
0
 10
-3.67741344122e-09
 20
-2.4238695849e-08
 30
0.0
 40
40.0
 50
98.6269265534
 51
171.373073406
  0
LINE
  8
0
 62
0
 10
-39.5474398666
 20
6.0
 30
0.0
 11
-129.861464646
 21
6.0
 31
0.0
  0
ARC
  8
0
 62
0
 10
-1.24231323166e-22
 20
-9.76712704076e-23
 30
0.0
 40
130.0
 50
92.6453603416
 51
177.354639658
  0
LINE
  8
0
 62
0
 10
-6.0
 20
39.5474398666
 30
0.0
 11
-6.0
 21
129.861464646
 31
0.0
  0
ARC
  8
0
 62
0
 10
-3.67741344122e-09
 20
-2.4238695849e-08
 30
0.0
 40
40.0
 50
8.6269265938
 51
81.373073436
  0
LINE
  8
0
 62
0
 10
6.0
 20
39.5474398666
 30
0.0
 11
6.0
 21
129.861464646
 31
0.0
  0
ARC
  8
0
 62
0
 10
-1.24231323166e-22
 20
-9.76712704076e-23
 30
0.0
 40
130.0
 50
2.64536034156
 51
87.3546396584
  0
LINE
  8
0
 62
0
 10
39.5474398666
 20
6.0
 30
0.0
 11
129.861464646
 21
6.0
 31
0.0
  0
LINE
  8
0
 62
0
 10
39.5474398666
 20
-6.0
 30
0.0
 11
129.861464646
 21
-6.0
 31
0.0
  0
ARC
  8
0
 62
0
 10
-1.24231323166e-22
 20
-9.76712704076e-23
 30
0.0
 40
130.0
 50
-87.3546396584
 51
-2.64536034156
  0
LINE
  8
0
 62
0
 10
6.0
 20
-39.5474398666
 30
0.0
 11
6.0
 21
-129.861464646
 31
0.0
  0
ARC
  8
0
 62
0
 10
-1.24231323166e-22
 20
-9.76712704076e-23
 30
0.0
 40
40.0
 50
-81.3730734413
 51
-8.62692655868
  0
ARC
  8
0
 62
0
 10
-1.24231323166e-22
 20
-9.76712704076e-23
 30
0.0
 40
40.0
 50
-171.373073441
 51
-98.6269265587
  0
LINE
  8
0
 62
0
 10
-6.0
 20
-39.5474398666
 30
0.0
 11
-6.0
 21
-129.861464646
 31
0.0
  0
ARC
  8
0
 62
0
 10
-1.24231323166e-22
 20
-9.76712704076e-23
 30
0.0
 40
130.0
 50
-177.354639658
 51
-92.6453603416
  0
LINE
  8
0
 62
0
 10
-39.5474398666
 20
-6.0
 30
0.0
 11
-129.861464646
 21
-6.0
 31
0.0
  0
CIRCLE
  8
0
 62
0
 10
-1.24231323166e-22
 20
-9.76712704076e-23
 30
0.0
 40
30.25
  0
ENDBLK
  0
ENDSEC
  0
SECTION
  2
ENTITIES
  0
INSERT
  2
SHAPE2DVIEW001
  8
0
 62
0
 10
0.0
 20
0.0
 30
0.0
  0
ENDSEC
  0
EOF
